13.658  0.0008 0.0 rapid zams  10.032  0.0008 0.0 rapid zams  36.5 0.126 end all
11.079  0.0002 0.0 rapid zams  9.012  0.0002 0.0 rapid zams  25.0 0.0187 end all
11.043  0.0001 0.0 rapid zams  8.72  0.0001 0.0 rapid zams  83.8 0.189 end all
11.444  0.0001 0.0 rapid zams  10.522  0.0001 0.0 rapid zams  20.9 0.193 end all
11.622  0.0002 0.0 rapid zams  7.994  0.0002 0.0 rapid zams  65.2 0.0548 end all
12.316  0.0006 0.0 rapid zams  10.157  0.0006 0.0 rapid zams  29.4 0.358 end all
13.231  0.008 0.0 rapid zams  12.118  0.008 0.0 rapid zams  218.0 0.2 end all
14.307  0.017 0.0 rapid zams  12.99  0.017 0.0 rapid zams  1330.0 0.00238 end all
13.303  0.0006 0.0 rapid zams  8.894  0.0006 0.0 rapid zams  48.1 0.0489 end all
14.245  0.001 0.0 rapid zams  11.785  0.001 0.0 rapid zams  20.8 0.0967 end all
14.087  0.001 0.0 rapid zams  9.614  0.001 0.0 rapid zams  36.1 0.684 end all
25.585  0.02 0.0 rapid zams  17.511  0.02 0.0 rapid zams  228.0 0.000848 end all
12.144  0.0001 0.0 rapid zams  6.565  0.0001 0.0 rapid zams  60.3 0.115 end all
14.653  0.0008 0.0 rapid zams  10.095  0.0008 0.0 rapid zams  66.3 0.0972 end all
11.898  0.008 0.0 rapid zams  10.047  0.008 0.0 rapid zams  28.3 0.256 end all
19.88  0.0002 0.0 rapid zams  15.9  0.0002 0.0 rapid zams  183.0 0.266 end all
15.62  0.004 0.0 rapid zams  11.672  0.004 0.0 rapid zams  176.0 0.0513 end all
8.921  0.0002 0.0 rapid zams  7.818  0.0002 0.0 rapid zams  158.0 0.14 end all
11.629  0.0006 0.0 rapid zams  9.042  0.0006 0.0 rapid zams  51.3 0.093 end all
14.446  0.0006 0.0 rapid zams  10.941  0.0006 0.0 rapid zams  102.0 0.000774 end all
10.897  0.0001 0.0 rapid zams  10.765999999999998  0.0001 0.0 rapid zams  109.0 0.236 end all
13.866  0.004 0.0 rapid zams  12.357  0.004 0.0 rapid zams  271.0 0.126 end all
16.605999999999998  0.006 0.0 rapid zams  14.542  0.006 0.0 rapid zams  139.0 0.175 end all
11.91  0.0004 0.0 rapid zams  7.644  0.0004 0.0 rapid zams  128.0 0.00289 end all
12.74  0.0006 0.0 rapid zams  10.685  0.0006 0.0 rapid zams  34.0 0.0811 end all
12.727  0.0008 0.0 rapid zams  9.808  0.0008 0.0 rapid zams  25.8 0.0412 end all
11.387  0.0008 0.0 rapid zams  10.574000000000002  0.0008 0.0 rapid zams  40.1 0.102 end all
15.909  0.017 0.0 rapid zams  12.597  0.017 0.0 rapid zams  155.0 0.0578 end all
10.886  0.0004 0.0 rapid zams  9.793  0.0004 0.0 rapid zams  21.8 0.278 end all
12.082  0.0006 0.0 rapid zams  10.936  0.0006 0.0 rapid zams  26.0 0.364 end all
12.796  0.014 0.0 rapid zams  12.187  0.014 0.0 rapid zams  168.0 0.373 end all
13.901  0.0001 0.0 rapid zams  10.246  0.0001 0.0 rapid zams  440.0 0.0847 end all
12.08  0.0006 0.0 rapid zams  9.305  0.0006 0.0 rapid zams  76.6 0.216 end all
15.748  0.001 0.0 rapid zams  9.968  0.001 0.0 rapid zams  20.2 0.135 end all
15.048  0.001 0.0 rapid zams  8.836  0.001 0.0 rapid zams  77.6 0.0080299999999999 end all
10.703  0.0002 0.0 rapid zams  8.474  0.0002 0.0 rapid zams  327.0 0.429 end all
28.573  0.02 0.0 rapid zams  20.346  0.02 0.0 rapid zams  461.0 0.0758 end all
13.377  0.0001 0.0 rapid zams  9.953  0.0001 0.0 rapid zams  24.8 0.224 end all
11.812  0.008 0.0 rapid zams  10.051  0.008 0.0 rapid zams  44.6 0.642 end all
11.216  0.0001 0.0 rapid zams  10.447  0.0001 0.0 rapid zams  31.7 0.5 end all
16.539  0.008 0.0 rapid zams  14.536  0.008 0.0 rapid zams  213.0 0.43 end all
16.191  0.017 0.0 rapid zams  14.635  0.017 0.0 rapid zams  408.0 0.161 end all
14.773  0.0008 0.0 rapid zams  11.97  0.0008 0.0 rapid zams  55.0 0.151 end all
16.098  0.01 0.0 rapid zams  15.018  0.01 0.0 rapid zams  2470.0 0.112 end all
13.418  0.014 0.0 rapid zams  12.674  0.014 0.0 rapid zams  44.8 0.283 end all
17.233  0.02 0.0 rapid zams  15.34  0.02 0.0 rapid zams  2210.0 0.499 end all
11.863  0.001 0.0 rapid zams  10.463  0.001 0.0 rapid zams  60.1 0.441 end all
18.081  0.03 0.0 rapid zams  16.878  0.03 0.0 rapid zams  187.0 0.286 end all
17.143  0.0001 0.0 rapid zams  12.507  0.0001 0.0 rapid zams  68.2 0.00319 end all
12.025  0.0002 0.0 rapid zams  10.27  0.0002 0.0 rapid zams  119.0 0.362 end all
14.496  0.0008 0.0 rapid zams  10.433  0.0008 0.0 rapid zams  30.7 0.309 end all
11.84  0.008 0.0 rapid zams  11.453  0.008 0.0 rapid zams  32.8 0.00132 end all
13.817  0.0004 0.0 rapid zams  12.816  0.0004 0.0 rapid zams  40.3 0.217 end all
16.098  0.0008 0.0 rapid zams  14.183  0.0008 0.0 rapid zams  36.4 0.486 end all
11.454  0.0002 0.0 rapid zams  9.072  0.0002 0.0 rapid zams  63.3 0.0122 end all
12.138  0.0002 0.0 rapid zams  10.606  0.0002 0.0 rapid zams  17.5 0.00415 end all
15.841  0.02 0.0 rapid zams  12.673  0.02 0.0 rapid zams  618.0 0.7170000000000001 end all
11.888  0.0004 0.0 rapid zams  8.543  0.0004 0.0 rapid zams  25.0 0.0417 end all
12.493  0.0004 0.0 rapid zams  11.304  0.0004 0.0 rapid zams  33.8 0.0252 end all
11.577  0.0002 0.0 rapid zams  8.089  0.0002 0.0 rapid zams  41.8 0.0402 end all
14.24  0.0008 0.0 rapid zams  9.467  0.0008 0.0 rapid zams  66.6 0.4 end all
18.343  0.02 0.0 rapid zams  17.671  0.02 0.0 rapid zams  395.0 0.00339 end all
9.65  0.0001 0.0 rapid zams  6.8820000000000014  0.0001 0.0 rapid zams  79.3 0.464 end all
18.022  0.002 0.0 rapid zams  17.15  0.002 0.0 rapid zams  177.0 0.502 end all
9.692  0.0001 0.0 rapid zams  7.171  0.0001 0.0 rapid zams  45.1 0.0747 end all
12.605  0.017 0.0 rapid zams  8.408999999999999  0.017 0.0 rapid zams  42.1 0.103 end all
19.214  0.004 0.0 rapid zams  8.769  0.004 0.0 rapid zams  706.0 0.274 end all
12.821  0.01 0.0 rapid zams  12.392  0.01 0.0 rapid zams  110.0 0.159 end all
19.988  0.03 0.0 rapid zams  14.511  0.03 0.0 rapid zams  592.0 0.507 end all
11.635  0.0004 0.0 rapid zams  10.242  0.0004 0.0 rapid zams  27.5 0.0922 end all
11.849  0.0006 0.0 rapid zams  11.27  0.0006 0.0 rapid zams  35.1 0.00699 end all
12.878  0.014 0.0 rapid zams  12.58  0.014 0.0 rapid zams  104.0 0.0606 end all
13.656  0.03 0.0 rapid zams  13.108  0.03 0.0 rapid zams  1140.0 0.677 end all
11.059  0.0001 0.0 rapid zams  8.402999999999999  0.0001 0.0 rapid zams  114.0 0.418 end all
14.019  0.0001 0.0 rapid zams  13.987  0.0001 0.0 rapid zams  1260.0 0.7829999999999999 end all
8.571  0.0001 0.0 rapid zams  7.717  0.0001 0.0 rapid zams  144.0 0.623 end all
11.683  0.0001 0.0 rapid zams  10.925  0.0001 0.0 rapid zams  113.0 0.0935 end all
12.332  0.0004 0.0 rapid zams  12.278  0.0004 0.0 rapid zams  202.0 2.8300000000000007e-05 end all
10.903  0.0004 0.0 rapid zams  7.729  0.0004 0.0 rapid zams  65.8 0.113 end all
12.501  0.006 0.0 rapid zams  12.262  0.006 0.0 rapid zams  135.0 0.0247 end all
13.093  0.008 0.0 rapid zams  12.149  0.008 0.0 rapid zams  298.0 0.377 end all
16.89  0.0008 0.0 rapid zams  10.791  0.0008 0.0 rapid zams  62.6 0.256 end all
11.138  0.0006 0.0 rapid zams  10.195  0.0006 0.0 rapid zams  46.7 0.173 end all
14.396  0.0008 0.0 rapid zams  10.8  0.0008 0.0 rapid zams  43.3 0.206 end all
18.241  0.02 0.0 rapid zams  16.997  0.02 0.0 rapid zams  1340.0 0.359 end all
16.49  0.0006 0.0 rapid zams  9.167  0.0006 0.0 rapid zams  191.0 0.536 end all
9.363  0.0001 0.0 rapid zams  8.764  0.0001 0.0 rapid zams  53.7 0.0195 end all
12.267  0.0001 0.0 rapid zams  9.193  0.0001 0.0 rapid zams  855.0 0.00302 end all
12.415  0.02 0.0 rapid zams  9.655  0.02 0.0 rapid zams  52.5 0.149 end all
13.911  0.0004 0.0 rapid zams  12.209  0.0004 0.0 rapid zams  709.0 0.032 end all
12.259  0.004 0.0 rapid zams  11.995  0.004 0.0 rapid zams  161.0 0.131 end all
11.0  0.0004 0.0 rapid zams  9.677  0.0004 0.0 rapid zams  21.1 0.00264 end all
14.185  0.0008 0.0 rapid zams  13.028  0.0008 0.0 rapid zams  53.3 0.617 end all
13.138  0.004 0.0 rapid zams  12.088  0.004 0.0 rapid zams  757.0 0.241 end all
8.728  0.0001 0.0 rapid zams  6.194  0.0001 0.0 rapid zams  98.5 0.158 end all
21.619  0.0006 0.0 rapid zams  16.086  0.0006 0.0 rapid zams  241.0 0.183 end all
17.262  0.0006 0.0 rapid zams  11.73  0.0006 0.0 rapid zams  512.0 0.439 end all
13.682  0.0001 0.0 rapid zams  11.875  0.0001 0.0 rapid zams  22.8 0.18 end all
10.305  0.0002 0.0 rapid zams  7.997999999999998  0.0002 0.0 rapid zams  91.2 0.458 end all
17.814  0.001 0.0 rapid zams  10.656  0.001 0.0 rapid zams  19.5 0.0144 end all
12.841  0.004 0.0 rapid zams  10.398  0.004 0.0 rapid zams  39.9 0.511 end all
8.732999999999999  0.0002 0.0 rapid zams  8.596  0.0002 0.0 rapid zams  128.0 0.118 end all
13.438  0.02 0.0 rapid zams  12.629  0.02 0.0 rapid zams  88.0 0.0084 end all
10.192  0.0002 0.0 rapid zams  8.28  0.0002 0.0 rapid zams  125.0 0.484 end all
10.674  0.0002 0.0 rapid zams  8.568999999999999  0.0002 0.0 rapid zams  20.6 0.198 end all
10.005  0.0001 0.0 rapid zams  9.572  0.0001 0.0 rapid zams  484.0 0.116 end all
14.722  0.0002 0.0 rapid zams  12.605  0.0002 0.0 rapid zams  27.2 0.00598 end all
8.899  0.0001 0.0 rapid zams  7.298999999999999  0.0001 0.0 rapid zams  124.0 0.565 end all
12.121  0.017 0.0 rapid zams  9.216  0.017 0.0 rapid zams  74.9 0.527 end all
12.661  0.001 0.0 rapid zams  10.184  0.001 0.0 rapid zams  48.4 0.0736 end all
15.523  0.0002 0.0 rapid zams  14.199000000000002  0.0002 0.0 rapid zams  357.0 0.479 end all
12.882  0.004 0.0 rapid zams  10.025  0.004 0.0 rapid zams  42.6 0.382 end all
9.58  0.0001 0.0 rapid zams  8.79  0.0001 0.0 rapid zams  167.0 0.58 end all
12.053  0.0008 0.0 rapid zams  9.862  0.0008 0.0 rapid zams  52.5 0.521 end all
10.286  0.0002 0.0 rapid zams  8.806000000000003  0.0002 0.0 rapid zams  52.6 0.23 end all
13.689  0.02 0.0 rapid zams  12.782  0.02 0.0 rapid zams  863.0 0.0196 end all
12.234000000000002  0.0001 0.0 rapid zams  9.301  0.0001 0.0 rapid zams  109.0 0.0263 end all
9.285  0.0001 0.0 rapid zams  6.372999999999998  0.0001 0.0 rapid zams  155.0 0.52 end all
14.05  0.008 0.0 rapid zams  12.515  0.008 0.0 rapid zams  1710.0 0.5329999999999999 end all
13.050999999999998  0.0004 0.0 rapid zams  8.343  0.0004 0.0 rapid zams  111.0 0.181 end all
10.93  0.0001 0.0 rapid zams  7.193  0.0001 0.0 rapid zams  120.0 0.5770000000000001 end all
11.539  0.002 0.0 rapid zams  8.642000000000001  0.002 0.0 rapid zams  49.9 0.262 end all
13.629  0.02 0.0 rapid zams  10.735  0.02 0.0 rapid zams  74.2 0.451 end all
13.258  0.004 0.0 rapid zams  11.549  0.004 0.0 rapid zams  41.8 0.0763 end all
12.428  0.0006 0.0 rapid zams  11.219  0.0006 0.0 rapid zams  192.0 0.111 end all
13.287  0.002 0.0 rapid zams  11.419  0.002 0.0 rapid zams  71.5 0.403 end all
10.64  0.0004 0.0 rapid zams  8.673  0.0004 0.0 rapid zams  57.1 0.135 end all
12.652  0.004 0.0 rapid zams  12.552  0.004 0.0 rapid zams  69.1 0.00178 end all
11.06  0.0004 0.0 rapid zams  7.837999999999999  0.0004 0.0 rapid zams  115.0 0.272 end all
9.862  0.0001 0.0 rapid zams  7.805  0.0001 0.0 rapid zams  92.1 0.413 end all
13.246  0.0004 0.0 rapid zams  10.045  0.0004 0.0 rapid zams  30.9 0.00269 end all
14.104  0.004 0.0 rapid zams  11.886  0.004 0.0 rapid zams  1600.0 0.653 end all
12.594  0.02 0.0 rapid zams  10.501  0.02 0.0 rapid zams  53.8 0.309 end all
16.926  0.0004 0.0 rapid zams  13.052  0.0004 0.0 rapid zams  228.0 0.204 end all
13.927  0.03 0.0 rapid zams  12.286  0.03 0.0 rapid zams  63.1 0.276 end all
13.72  0.002 0.0 rapid zams  12.81  0.002 0.0 rapid zams  34.4 0.32 end all
13.513  0.001 0.0 rapid zams  13.442  0.001 0.0 rapid zams  82.0 0.39 end all
12.646  0.002 0.0 rapid zams  12.403  0.002 0.0 rapid zams  33.6 0.316 end all
13.847  0.006 0.0 rapid zams  12.182  0.006 0.0 rapid zams  203.0 0.14 end all
11.703  0.0006 0.0 rapid zams  8.541  0.0006 0.0 rapid zams  353.0 0.397 end all
14.744000000000002  0.0006 0.0 rapid zams  14.005999999999998  0.0006 0.0 rapid zams  1070.0 0.208 end all
19.299  0.0004 0.0 rapid zams  12.095999999999998  0.0004 0.0 rapid zams  319.0 0.5760000000000001 end all
15.298  0.0001 0.0 rapid zams  10.3  0.0001 0.0 rapid zams  26.7 0.0718 end all
11.16  0.0006 0.0 rapid zams  9.17  0.0006 0.0 rapid zams  38.0 0.0701 end all
13.012  0.0004 0.0 rapid zams  11.796  0.0004 0.0 rapid zams  26.0 0.205 end all
17.416  0.03 0.0 rapid zams  16.262999999999998  0.03 0.0 rapid zams  2250.0 0.27 end all
13.647  0.0004 0.0 rapid zams  9.835  0.0004 0.0 rapid zams  35.8 0.252 end all
13.77  0.0008 0.0 rapid zams  10.279000000000002  0.0008 0.0 rapid zams  100.0 0.458 end all
11.887  0.0006 0.0 rapid zams  9.208  0.0006 0.0 rapid zams  62.1 0.0361 end all
9.085  0.0002 0.0 rapid zams  8.465  0.0002 0.0 rapid zams  1580.0 0.622 end all
19.108  0.0008 0.0 rapid zams  10.902  0.0008 0.0 rapid zams  93.4 0.875 end all
14.341  0.0008 0.0 rapid zams  13.367  0.0008 0.0 rapid zams  29.2 0.152 end all
10.387  0.0002 0.0 rapid zams  8.59  0.0002 0.0 rapid zams  36.9 0.127 end all
16.769000000000002  0.001 0.0 rapid zams  16.179000000000002  0.001 0.0 rapid zams  238.0 0.401 end all
10.082  0.0002 0.0 rapid zams  9.786  0.0002 0.0 rapid zams  171.0 0.122 end all
12.845  0.03 0.0 rapid zams  10.938  0.03 0.0 rapid zams  65.2 0.659 end all
13.15  0.001 0.0 rapid zams  9.442  0.001 0.0 rapid zams  38.7 5.98e-05 end all
11.055  0.0002 0.0 rapid zams  10.104  0.0002 0.0 rapid zams  35.3 0.000258 end all
16.515  0.0008 0.0 rapid zams  11.337  0.0008 0.0 rapid zams  220.0 0.114 end all
13.411  0.0004 0.0 rapid zams  7.4220000000000015  0.0004 0.0 rapid zams  56.3 0.00679 end all
15.798  0.002 0.0 rapid zams  13.591  0.002 0.0 rapid zams  1650.0 0.845 end all
12.997  0.0008 0.0 rapid zams  7.184  0.0008 0.0 rapid zams  129.0 0.144 end all
11.833  0.0002 0.0 rapid zams  10.037  0.0002 0.0 rapid zams  30.9 0.185 end all
13.208  0.0002 0.0 rapid zams  10.169  0.0002 0.0 rapid zams  31.2 0.184 end all
11.543  0.004 0.0 rapid zams  9.951  0.004 0.0 rapid zams  46.1 0.563 end all
12.922  0.001 0.0 rapid zams  10.208  0.001 0.0 rapid zams  50.4 0.325 end all
11.953  0.002 0.0 rapid zams  10.432  0.002 0.0 rapid zams  35.3 0.42 end all
12.72  0.0004 0.0 rapid zams  8.734  0.0004 0.0 rapid zams  25.7 0.0352 end all
11.858  0.0002 0.0 rapid zams  7.9460000000000015  0.0002 0.0 rapid zams  115.0 0.447 end all
10.805  0.0002 0.0 rapid zams  9.606  0.0002 0.0 rapid zams  55.2 0.467 end all
11.380999999999998  0.0008 0.0 rapid zams  10.241  0.0008 0.0 rapid zams  30.4 0.174 end all
14.732  0.0001 0.0 rapid zams  14.652  0.0001 0.0 rapid zams  234.0 0.14 end all
15.702  0.02 0.0 rapid zams  12.2  0.02 0.0 rapid zams  58.6 0.204 end all
18.259  0.001 0.0 rapid zams  17.078  0.001 0.0 rapid zams  45.0 0.142 end all
10.835  0.0004 0.0 rapid zams  7.987999999999999  0.0004 0.0 rapid zams  27.3 0.435 end all
11.761  0.0002 0.0 rapid zams  8.791  0.0002 0.0 rapid zams  76.7 0.423 end all
10.819  0.0002 0.0 rapid zams  8.413  0.0002 0.0 rapid zams  126.0 0.231 end all
23.404  0.03 0.0 rapid zams  18.896  0.03 0.0 rapid zams  3690.0 0.715 end all
10.957  0.0001 0.0 rapid zams  10.461  0.0001 0.0 rapid zams  101.0 0.28 end all
15.998  0.0002 0.0 rapid zams  10.339  0.0002 0.0 rapid zams  16.3 0.135 end all
18.291  0.008 0.0 rapid zams  14.297  0.008 0.0 rapid zams  1390.0 0.8170000000000001 end all
20.4  0.014 0.0 rapid zams  16.518  0.014 0.0 rapid zams  713.0 0.436 end all
8.724  0.0002 0.0 rapid zams  7.302  0.0002 0.0 rapid zams  177.0 0.395 end all
11.032  0.0001 0.0 rapid zams  9.634  0.0001 0.0 rapid zams  25.6 0.114 end all
13.124  0.0004 0.0 rapid zams  8.096  0.0004 0.0 rapid zams  66.8 0.0363 end all
18.393  0.03 0.0 rapid zams  16.07  0.03 0.0 rapid zams  43.9 0.12 end all
11.507  0.0004 0.0 rapid zams  7.074  0.0004 0.0 rapid zams  192.0 0.371 end all
21.843000000000004  0.014 0.0 rapid zams  13.739  0.014 0.0 rapid zams  292.0 0.0572 end all
10.67  0.0001 0.0 rapid zams  9.197  0.0001 0.0 rapid zams  48.4 0.00353 end all
9.573  0.0001 0.0 rapid zams  8.68  0.0001 0.0 rapid zams  239.0 0.388 end all
15.734000000000002  0.0002 0.0 rapid zams  11.087  0.0002 0.0 rapid zams  111.0 0.0652 end all
13.852  0.001 0.0 rapid zams  6.836  0.001 0.0 rapid zams  345.0 0.0826 end all
11.08  0.0001 0.0 rapid zams  10.338  0.0001 0.0 rapid zams  30.0 0.1639999999999999 end all
16.916  0.02 0.0 rapid zams  16.055999999999994  0.02 0.0 rapid zams  283.0 0.5579999999999999 end all
11.935  0.0001 0.0 rapid zams  10.807  0.0001 0.0 rapid zams  34.4 0.019 end all
13.856  0.0002 0.0 rapid zams  7.718  0.0002 0.0 rapid zams  39.5 0.0441 end all
11.591  0.002 0.0 rapid zams  9.673  0.002 0.0 rapid zams  33.2 0.0313 end all
11.967  0.0008 0.0 rapid zams  9.56  0.0008 0.0 rapid zams  39.7 0.156 end all
14.979  0.0002 0.0 rapid zams  10.297  0.0002 0.0 rapid zams  68.3 0.161 end all
15.898  0.004 0.0 rapid zams  13.546  0.004 0.0 rapid zams  290.0 0.349 end all
