6.21783864e+00   5.63060588e+00   3.84135807e+00   3.45195452e+00   3.51819938e+00   3.94830709e+00   4.33225237e+00   5.53476014e+00   8.03975990e+00   9.78208323e+00   9.76727717e+00   9.08520442e+00   8.78060213e+00   8.74874722e+00   7.70398871e+00   4.95976634e+00   3.51928058e+00   2.50794878e+00   1.82494782e+00   1.36550144e+00   9.46845489e-01   7.08564696e-01   5.04981702e-01   3.77552451e-01   2.82805605e-01   2.10638796e-01   2.10635937e-01   
6.21721726e+00   5.33476241e+00   5.33219081e+00   7.29419665e+00   1.01497574e+01   1.26290694e+01   1.28391162e+01   1.22413270e+01   1.20558923e+01   1.20359511e+01   1.17031747e+01   1.06317960e+01   7.45649357e+00   7.28136261e+00   
7.26376530e+00   6.99385053e+00   9.45684821e+00   1.26976332e+01   1.60381316e+01   1.64971648e+01   1.60469928e+01   1.59533336e+01   1.59446614e+01   1.60282341e+01   1.39796547e+01   1.23895740e+01   1.17362704e+01   1.09724330e+01   9.04437840e+00   8.68396410e+00   
9.05480321e+00   1.19006761e+01   1.62025469e+01   1.99217395e+01   2.05516509e+01   2.02668018e+01   2.02746519e+01   2.02822497e+01   2.10586586e+01   1.93540000e+01   1.75580439e+01   1.65737223e+01   1.35648291e+01   1.02076229e+01   8.36597206e+00   7.33361742e+00   7.30051254e+00   8.27666973e+00   1.03471414e+01   1.40014272e+01   3.23205598e+01   3.93593336e+01   4.31375896e+01   4.29766850e+01   3.06732799e+01   2.63236384e+01   2.37037194e+01   1.58112174e+01   1.30949365e+01   1.10894036e+01   1.02687097e+01   1.08302988e+01   1.29424570e+01   1.69635572e+01   2.66365519e+01   4.09037609e+01   4.96074637e+01   5.34153841e+01   4.92544561e+01   3.55297166e+01   3.13190954e+01   2.86291679e+01   1.94280077e+01   1.62062800e+01   1.39512709e+01   1.25876890e+01   1.32968024e+01   1.59220048e+01   2.13545963e+01   4.37477072e+01   5.39220933e+01   5.82982266e+01   5.48204855e+01   3.96988558e+01   3.49198959e+01   3.20464124e+01   2.19326393e+01   1.81828996e+01   1.56778547e+01   1.44063044e+01   1.49975267e+01   1.77509028e+01   2.33945360e+01   4.74732560e+01   5.64982624e+01   6.11378729e+01   5.67913831e+01   4.07789170e+01   3.73917990e+01   3.42361371e+01   2.40695437e+01   2.37978518e+01   
1.13379344e+01   1.46308509e+01   2.02929930e+01   2.43616838e+01   2.50617908e+01   2.50847597e+01   2.51098740e+01   2.51374912e+01   2.68967413e+01   2.54477899e+01   1.81777610e+01   1.86083801e+01   2.13979892e+01   3.53885860e+01   3.92862554e+01   3.81225504e+01   3.38957945e+01   3.13333323e+01   2.16175535e+01   1.82359802e+01   1.64636478e+01   1.67556200e+01   1.92308705e+01   2.49676468e+01   4.52087739e+01   5.35586971e+01   5.68517831e+01   4.86981484e+01   4.11734899e+01   3.66966957e+01   2.73314974e+01   2.30147554e+01   2.03058772e+01   1.97775124e+01   2.17135084e+01   2.67207929e+01   5.16469974e+01   6.09848915e+01   6.40485481e+01   5.13749026e+01   4.55283932e+01   4.02561796e+01   3.02731817e+01   2.53151085e+01   2.23798268e+01   2.21849267e+01   2.52041183e+01   3.21151384e+01   5.59497923e+01   6.58343870e+01   6.83840206e+01   5.24900454e+01   4.87006096e+01   4.06721202e+01   3.18267939e+01   2.72348692e+01   2.43284466e+01   2.49129979e+01   2.95580063e+01   4.23536000e+01   5.91616316e+01   6.83465058e+01   7.12677423e+01   5.62604798e+01   5.16592763e+01   4.47859148e+01   3.54508210e+01   2.96897966e+01   2.63060583e+01   2.60621117e+01   2.96952793e+01   3.94594408e+01   6.08486943e+01   7.03540181e+01   7.35011542e+01   5.95654611e+01   5.40904682e+01   4.83690091e+01   3.69838586e+01   3.09691654e+01   2.74358584e+01   2.72716009e+01   3.11020471e+01   4.12521029e+01   6.22357799e+01   7.20302770e+01   7.54641277e+01   6.12665594e+01   5.58542300e+01   5.00975125e+01   3.83192992e+01   3.20860494e+01   2.85297382e+01   2.89252014e+01   3.33200199e+01   4.59397022e+01   6.50360072e+01   7.45788095e+01   7.66652226e+01   6.19829161e+01   5.66895756e+01   4.70892472e+01   3.76111242e+01   3.21658856e+01   2.93775082e+01   2.99221599e+01   3.43618221e+01   4.74032342e+01   6.65417412e+01   7.60625514e+01   7.69098846e+01   6.03789477e+01   5.62055008e+01   3.98765587e+01   3.40803155e+01   3.04284569e+01   3.07667165e+01   3.51616654e+01   4.75398450e+01   6.72272440e+01   7.68346437e+01   7.76171219e+01   6.12920363e+01   5.73843069e+01   4.11007554e+01   3.44289627e+01   3.09158179e+01   3.14069656e+01   3.65772344e+01   5.34852224e+01   7.07113945e+01   7.90784811e+01   7.70732927e+01   6.16506956e+01   5.63704135e+01   4.20774913e+01   3.54288453e+01   3.17955327e+01   3.24693495e+01   3.77672730e+01   6.78751663e+01   7.78558548e+01   7.93435295e+01   6.40566349e+01   6.01351415e+01   4.26269288e+01   3.63916927e+01   3.29057653e+01   3.33870447e+01   3.95617644e+01   6.93194557e+01   7.89100579e+01   7.88528821e+01   6.33873536e+01   5.94389079e+01   4.37547041e+01   3.72847718e+01   3.32871317e+01   3.43216048e+01   4.06094355e+01   6.93868160e+01   7.88977827e+01   8.05485337e+01   6.63175270e+01   6.14957019e+01   4.31274500e+01   3.68472138e+01   3.37717026e+01   3.48573354e+01   4.11431944e+01   7.03566713e+01   7.98989087e+01   7.93290390e+01   6.41521875e+01   5.85386901e+01   4.45290318e+01   3.79946178e+01   3.44664420e+01   3.55041428e+01   4.18426359e+01   7.00224631e+01   7.99024761e+01   8.01872695e+01   6.64139124e+01   6.16097651e+01   4.47386287e+01   3.82073299e+01   3.49897576e+01   3.60493971e+01   4.25631829e+01   7.11378031e+01   7.98205455e+01   8.05588631e+01   6.69457009e+01   6.16311918e+01   4.41758996e+01   3.77811984e+01   3.53405558e+01   3.66263952e+01   4.31531675e+01   7.05813038e+01   8.04116223e+01   8.03023006e+01   6.55775641e+01   5.97232991e+01   4.53026369e+01   3.86961831e+01   3.56509252e+01   3.71974414e+01   4.49517855e+01   7.14438132e+01   8.11219872e+01   8.03818223e+01   6.61158661e+01   5.87949727e+01   4.57862179e+01   3.91337106e+01   3.64532847e+01   3.88467762e+01   4.79248065e+01   7.09545664e+01   8.08227254e+01   8.05846161e+01   6.65019494e+01   5.96557747e+01   4.63165814e+01   3.95659299e+01   3.67694105e+01   3.90426537e+01   4.82662891e+01   7.14263455e+01   8.11450565e+01   8.03833122e+01   6.63729503e+01   5.90067787e+01   4.60200160e+01   3.93710059e+01   3.70432996e+01   3.88613411e+01   4.68885381e+01   7.12757749e+01   8.11460617e+01   8.07422546e+01   6.68456405e+01   5.99335138e+01   4.65853649e+01   3.98296634e+01   3.74006121e+01   3.90357874e+01   4.71277948e+01   7.16555422e+01   8.14791764e+01   8.08139229e+01   6.66531438e+01   5.91187768e+01   4.60675359e+01   3.95153046e+01   3.79456653e+01   4.24920878e+01   5.89008700e+01   7.52849354e+01   8.24927190e+01   7.86732266e+01   6.70221488e+01   5.95595013e+01   4.63293060e+01   3.97625269e+01   3.84238818e+01   4.33449444e+01   7.35594032e+01   8.17752942e+01   8.03792200e+01   6.63336819e+01   5.92879996e+01   4.61345355e+01   3.96269738e+01   3.86544495e+01   4.38442599e+01   7.27025688e+01   8.13749501e+01   8.12760268e+01   6.82436955e+01   6.21640912e+01   4.67491905e+01   4.01912635e+01   3.89754125e+01   4.17553576e+01   5.24888027e+01   7.24350086e+01   8.11572968e+01   8.11855622e+01   6.81600825e+01   6.21901613e+01   4.68592344e+01   4.09835775e+01   3.94053932e+01   4.41525411e+01   7.34194715e+01   8.16405649e+01   8.01207444e+01   6.69578184e+01   6.00174245e+01   4.65213436e+01   4.07283566e+01   3.94063218e+01   4.44657940e+01   7.37732733e+01   8.20364109e+01   8.05312542e+01   6.74206625e+01   6.05380387e+01   4.66560770e+01   4.09463323e+01   3.98624081e+01   4.44467111e+01   7.39575726e+01   8.19381161e+01   7.96317264e+01   6.74490129e+01   5.86699689e+01   4.67147397e+01   4.11301839e+01   4.06200066e+01   4.60258716e+01   7.43004172e+01   8.19381438e+01   7.87500732e+01   6.58631451e+01   5.55165317e+01   4.55977946e+01   4.05374311e+01   4.15749923e+01   5.02493711e+01   7.29682997e+01   8.14511404e+01   8.05104697e+01   6.76498954e+01   5.79006827e+01   4.62401337e+01   4.11633599e+01   4.24769342e+01   5.12157686e+01   7.26908109e+01   8.11258192e+01   8.10922594e+01   6.84813411e+01   6.07278574e+01   4.68016995e+01   4.14628886e+01   4.19966163e+01   4.94481308e+01   7.36980440e+01   8.16432754e+01   7.90881702e+01   6.68552704e+01   5.75483258e+01   4.59528639e+01   4.16505553e+01   4.27146824e+01   5.15761510e+01   7.31267944e+01   8.11514625e+01   8.01201808e+01   6.67117526e+01   5.87370471e+01   4.64446539e+01   4.19557732e+01   4.25849159e+01   5.01765265e+01   7.31292514e+01   8.10663859e+01   7.98175150e+01   6.61818365e+01   5.68005615e+01   4.63927154e+01   4.21688993e+01   4.37384499e+01   5.39493507e+01   7.29056535e+01   8.08483499e+01   7.96008959e+01   6.60541557e+01   5.67965282e+01   4.63343808e+01   4.23441745e+01   4.33491384e+01   5.10616957e+01   7.27413973e+01   8.05385041e+01   7.89608032e+01   6.75248425e+01   5.93687486e+01   4.66555390e+01   4.26177453e+01   4.36067906e+01   5.13405283e+01   7.30519328e+01   8.04831805e+01   7.81168097e+01   6.63067261e+01   5.84251430e+01   4.69064915e+01   4.30655373e+01   4.54812498e+01   5.73334388e+01   7.36490929e+01   8.03783422e+01   7.47732684e+01   6.42346111e+01   4.62083243e+01   4.31835106e+01   4.66466170e+01   7.44043217e+01   8.04754045e+01   7.35909154e+01   6.28575703e+01   4.64328054e+01   4.37830329e+01   4.60493831e+01   5.78913267e+01   7.41901109e+01   7.96203984e+01   7.58483618e+01   6.36407020e+01   4.63287049e+01   4.42006976e+01   4.89971153e+01   7.26655924e+01   7.92593006e+01   7.51418030e+01   6.30165168e+01   4.63856085e+01   4.51445860e+01   5.10482580e+01   7.18265261e+01   7.84733289e+01   7.44034650e+01   6.24517776e+01   4.64397242e+01   4.54033103e+01   5.08358052e+01   7.17008519e+01   7.75915208e+01   7.46457619e+01   6.10250977e+01   4.78227123e+01   4.62053725e+01   5.10560808e+01   7.20055924e+01   7.66225697e+01   7.09975938e+01   5.75766180e+01   4.86915660e+01   4.85128853e+01   5.78860608e+01   7.11005765e+01   7.40975917e+01   6.58460002e+01   5.18098003e+01   5.26014788e+01   6.76871553e+01   6.74887884e+01   5.62598945e+01   5.93740400e+01   6.28568742e+01   5.95866144e+01   6.83850433e+01   7.42785408e+01   8.68783524e+01   8.10560705e+01   7.42192317e+01   6.59324420e+01   6.36268049e+01   6.75435730e+01   7.40668533e+01   8.01030940e+01   8.78114200e+01   9.65925614e+01   1.14493527e+02   1.21734996e+02   1.26761529e+02   1.45659879e+02   1.93797792e+02   2.58905180e+02   2.85736065e+02   2.73572552e+02   1.90092118e+02   1.45942766e+02   1.14899961e+02   9.06782795e+01   7.16320814e+01   5.65014595e+01   4.23902245e+01   3.09711408e+01   2.20698486e+01   1.61301367e+01   1.17674641e+01   8.79953297e+00   6.43428869e+00   4.81467081e+00   3.69616090e+00   2.63257980e+00   2.02091928e+00   1.44091841e+00   1.05201070e+00   7.87627017e-01   5.75464605e-01   4.31045057e-01   3.22609255e-01   3.15447904e-01   
1.68442798e+01   2.15916296e+01   2.95249499e+01   3.49865282e+01   3.62879325e+01   3.69220350e+01   3.69916158e+01   3.99192313e+01   4.12764841e+01   4.00663543e+01   2.88734149e+01   2.91744695e+01   3.33441165e+01   5.25242041e+01   5.76365603e+01   5.74171970e+01   5.63299484e+01   3.81803847e+01   3.59213581e+01   3.72917774e+01   4.50528202e+01   6.39750267e+01   7.14053155e+01   6.97993823e+01   6.29557764e+01   5.56709645e+01   4.37638077e+01   3.82999815e+01   3.68101284e+01   4.04386970e+01   5.19237236e+01   7.32354660e+01   8.27886195e+01   8.46481811e+01   7.29521653e+01   6.85293948e+01   5.03675094e+01   4.31506580e+01   4.11428161e+01   4.46944502e+01   5.75219403e+01   8.09056151e+01   9.06992598e+01   9.03587567e+01   7.86922046e+01   7.25002026e+01   5.50466991e+01   4.71622879e+01   4.47799349e+01   4.83551394e+01   6.08445984e+01   8.56329415e+01   9.57936407e+01   9.47370340e+01   8.31716703e+01   7.41033400e+01   5.76741218e+01   5.04351948e+01   4.77365948e+01   5.13349860e+01   6.61263452e+01   8.89397922e+01   9.94185807e+01   9.80294535e+01   8.87558783e+01   6.05471382e+01   5.32002204e+01   5.15546175e+01   5.59620231e+01   7.64987298e+01   9.54465953e+01   1.02670938e+02   9.61856683e+01   8.80855317e+01   6.13428233e+01   5.37850470e+01   5.17008312e+01   5.55692097e+01   7.14561859e+01   9.58081603e+01   1.04945558e+02   1.03028995e+02   9.22170782e+01   8.17581116e+01   6.50874613e+01   5.68125189e+01   5.37096867e+01   5.77238068e+01   7.58199358e+01   9.73237218e+01   1.07653718e+02   1.03259058e+02   9.25368208e+01   6.55523514e+01   5.74504153e+01   5.52565338e+01   5.94268221e+01   7.79618931e+01   9.99495648e+01   1.09195307e+02   1.06319167e+02   9.83994293e+01   6.82688525e+01   6.00994656e+01   5.95946827e+01   6.79720479e+01   9.96400856e+01   1.09052842e+02   1.06030365e+02   9.95479706e+01   6.99348494e+01   6.18921260e+01   6.29620485e+01   7.59774583e+01   1.00363464e+02   1.09343542e+02   1.06804629e+02   9.60115186e+01   6.93742639e+01   6.09246299e+01   5.97228358e+01   6.78949876e+01   1.02153233e+02   1.11918786e+02   1.09287434e+02   1.00419941e+02   8.68694241e+01   6.96729686e+01   6.15564540e+01   6.12884901e+01   6.96630197e+01   1.02529288e+02   1.13532442e+02   1.08121874e+02   9.98789763e+01   7.03221540e+01   6.21484642e+01   6.21144547e+01   7.06966175e+01   1.03849565e+02   1.13880902e+02   1.11167747e+02   9.92582550e+01   7.17487840e+01   6.32179151e+01   6.35798018e+01   7.51785572e+01   1.04574658e+02   1.15898428e+02   1.13117542e+02   1.02087668e+02   7.22465848e+01   6.39828506e+01   6.44652415e+01   7.57757425e+01   1.05501412e+02   1.15689367e+02   1.14736826e+02   1.03039349e+02   8.86364535e+01   7.26335342e+01   6.54272371e+01   6.54153096e+01   7.43868744e+01   1.06676232e+02   1.16459714e+02   1.14041311e+02   1.04796110e+02   8.90593683e+01   7.26675642e+01   6.60079608e+01   6.77356606e+01   8.17195920e+01   1.07896673e+02   1.17284144e+02   1.13565467e+02   1.03683323e+02   7.40488021e+01   6.69404408e+01   6.76250589e+01   7.94776438e+01   1.07987670e+02   1.17689742e+02   1.14503882e+02   1.07081521e+02   7.72629965e+01   7.00280235e+01   7.12419360e+01   8.58889868e+01   1.08420108e+02   1.16814039e+02   1.09175031e+02   7.82721961e+01   7.18955318e+01   7.57972759e+01   1.08706307e+02   1.15905293e+02   1.08821207e+02   9.84431999e+01   7.61487661e+01   6.87838065e+01   6.93492799e+01   8.13439562e+01   1.10215543e+02   1.18647551e+02   1.11198409e+02   1.02006876e+02   7.75843892e+01   7.03351785e+01   7.17014889e+01   8.65610071e+01   1.11306183e+02   1.18422070e+02   1.11625481e+02   1.07297297e+02   7.80723547e+01   7.22177253e+01   7.36485191e+01   9.08950853e+01   1.11510455e+02   1.17750776e+02   1.09014877e+02   7.91944753e+01   7.36461897e+01   7.63131423e+01   1.11766350e+02   1.17226162e+02   1.09964000e+02   1.00675859e+02   7.84189072e+01   7.25388783e+01   7.41481718e+01   9.13677554e+01   1.12047286e+02   1.18154662e+02   1.09178745e+02   9.66584926e+01   7.78201282e+01   7.32485089e+01   7.79345441e+01   1.11237923e+02   1.17901965e+02   1.09598314e+02   9.77632502e+01   7.82745617e+01   7.38421401e+01   7.87960618e+01   1.12054674e+02   1.18066323e+02   1.11952453e+02   1.01415047e+02   8.03154430e+01   7.50806148e+01   7.89766130e+01   1.10645691e+02   1.17378404e+02   1.08850334e+02   9.80744329e+01   7.91249277e+01   7.54709163e+01   8.44986393e+01   1.10699892e+02   1.17450770e+02   1.08923554e+02   9.86718588e+01   7.97587202e+01   7.63077928e+01   8.57417302e+01   1.11790179e+02   1.17141742e+02   1.09272555e+02   9.51421639e+01   7.91009733e+01   7.68906103e+01   8.62106564e+01   1.10335092e+02   1.16804022e+02   1.11089242e+02   9.81912418e+01   8.03418891e+01   7.75961740e+01   8.62816948e+01   1.10511338e+02   1.16363954e+02   1.09114109e+02   9.25653623e+01   8.04702112e+01   8.01689680e+01   9.98732791e+01   1.13293147e+02   1.12635485e+02   9.81872726e+01   8.37230062e+01   8.29878758e+01   1.09642987e+02   1.10757450e+02   9.53141271e+01   8.72026273e+01   9.72295632e+01   1.04695062e+02   9.31285679e+01   9.84255786e+01   1.03612585e+02   1.27609147e+02   1.38869405e+02   1.74632312e+02   2.13163190e+02   2.18893592e+02   1.97569084e+02   1.68874844e+02   1.38804185e+02   1.07099283e+02   6.00495689e+01   4.27325153e+01   3.12125726e+01   2.33331982e+01   1.74875269e+01   1.27842916e+01   9.57480536e+00   7.00554685e+00   5.23550934e+00   3.92740448e+00   2.79310489e+00   2.14427744e+00   1.49141603e+00   1.11454919e+00   9.52926435e-01   7.13172719e-01   5.33416378e-01   3.99768778e-01   2.92082816e-01   2.85595333e-01   
2.01107612e+01   2.58259974e+01   3.48911264e+01   4.13009037e+01   4.28599587e+01   4.38423041e+01   4.39376108e+01   4.73801653e+01   5.03933986e+01   4.96285928e+01   4.74935266e+01   3.64238940e+01   3.61644019e+01   4.10042177e+01   6.33698566e+01   6.93825271e+01   6.79343054e+01   6.60802728e+01   4.69832041e+01   4.30631755e+01   4.43991477e+01   5.23881353e+01   7.80842588e+01   8.70729233e+01   8.62801615e+01   7.94510148e+01   6.85320115e+01   5.57204435e+01   5.00711569e+01   4.96142385e+01   5.65605165e+01   8.90932928e+01   9.88146506e+01   9.68776278e+01   9.02215150e+01   8.00897705e+01   6.22961491e+01   5.52414449e+01   5.61665531e+01   6.63284623e+01   9.63408133e+01   1.06616291e+02   1.03833184e+02   9.35973088e+01   6.62786200e+01   5.87262954e+01   5.98765546e+01   7.24673453e+01   1.00452701e+02   1.12095066e+02   1.09000821e+02   9.79420958e+01   7.14003437e+01   6.27505777e+01   6.13691571e+01   6.97210720e+01   1.07319123e+02   1.17287235e+02   1.13468682e+02   1.07456859e+02   7.64468776e+01   6.74479287e+01   6.75009608e+01   7.93991264e+01   1.10190629e+02   1.19912244e+02   1.16677205e+02   1.08197667e+02   7.79828131e+01   6.88032492e+01   6.91865049e+01   8.16284377e+01   1.13215788e+02   1.23282327e+02   1.20199969e+02   1.14288562e+02   8.15770759e+01   7.22877063e+01   7.24462380e+01   8.47149214e+01   1.15165480e+02   1.25087494e+02   1.20583175e+02   1.16203276e+02   8.23538697e+01   7.43038824e+01   7.57619733e+01   9.33686168e+01   1.19740949e+02   1.27873670e+02   1.22200669e+02   1.17210641e+02   8.55495025e+01   7.58555659e+01   7.62835883e+01   8.92637213e+01   1.18640497e+02   1.28953373e+02   1.24080443e+02   1.14251130e+02   8.54167063e+01   7.67321515e+01   7.68494835e+01   9.03650791e+01   1.22293970e+02   1.31730759e+02   1.23530600e+02   1.15086306e+02   8.80986517e+01   7.77047490e+01   7.85753112e+01   9.48710335e+01   1.22575385e+02   1.33281133e+02   1.28456214e+02   1.23771948e+02   8.93338110e+01   8.12543678e+01   8.28867191e+01   9.98749448e+01   1.25580019e+02   1.33218901e+02   1.22970729e+02   1.10032837e+02   8.81767430e+01   8.04609319e+01   8.32987725e+01   1.07036474e+02   1.28049388e+02   1.35220530e+02   1.24103258e+02   1.11562670e+02   8.93862256e+01   8.15184684e+01   8.43088028e+01   1.05944724e+02   1.29551620e+02   1.36481549e+02   1.24416680e+02   9.06047208e+01   8.22066237e+01   8.38387137e+01   1.01205074e+02   1.30106170e+02   1.38482708e+02   1.29550193e+02   9.38680568e+01   8.72714227e+01   8.99539592e+01   1.29258654e+02   1.36430389e+02   1.28002971e+02   1.15056543e+02   9.23385019e+01   8.55350273e+01   8.75334305e+01   1.07750504e+02   1.31939479e+02   1.38674645e+02   1.29739390e+02   1.17486871e+02   9.34974775e+01   8.58502371e+01   9.03343385e+01   1.32236096e+02   1.39641307e+02   1.32804818e+02   1.20633109e+02   9.58569678e+01   8.79433965e+01   9.21824531e+01   1.31988970e+02   1.39493952e+02   1.29058308e+02   9.55418261e+01   8.90826619e+01   9.27826785e+01   1.32855907e+02   1.40034831e+02   1.30951572e+02   9.72533330e+01   9.22125407e+01   1.02166657e+02   1.33375127e+02   1.38679298e+02   1.30147812e+02   9.76775678e+01   9.35550462e+01   1.02836806e+02   1.32062040e+02   1.38340506e+02   1.31366182e+02   1.17045828e+02   9.74810062e+01   9.33364105e+01   9.90557631e+01   1.34195991e+02   1.38679478e+02   1.28886809e+02   9.90519024e+01   9.46187593e+01   1.00133070e+02   1.33156711e+02   1.38730814e+02   1.30179640e+02   9.85532440e+01   9.56931514e+01   1.06788413e+02   1.33134045e+02   1.38537156e+02   1.29734979e+02   9.92892230e+01   9.70515351e+01   1.12183602e+02   1.34818088e+02   1.36591854e+02   1.23278325e+02   1.00338336e+02   9.98366300e+01   1.32910571e+02   1.35558244e+02   1.23051394e+02   1.04278252e+02   1.05331083e+02   1.29895486e+02   1.29117040e+02   1.09931899e+02   1.11665766e+02   1.23656712e+02   1.15833444e+02   1.19487536e+02   1.46413638e+02   1.82834452e+02   2.39783419e+02   3.10953897e+02   3.39599480e+02   3.13104670e+02   2.67332557e+02   1.98629994e+02   1.53952785e+02   8.39587975e+01   6.11652172e+01   4.57151991e+01   3.42402994e+01   2.56345044e+01   1.96654129e+01   1.47344068e+01   1.10189540e+01   8.25092775e+00   6.01672556e+00   4.61246170e+00   3.20954035e+00   2.45726761e+00   1.75437800e+00   1.27898082e+00   9.34801281e-01   6.99824494e-01   5.23833624e-01   3.92426238e-01   2.86717440e-01   2.80379496e-01   
2.98867019e+01   3.81905026e+01   5.30949328e+01   6.00434875e+01   6.19843365e+01   6.36913316e+01   6.38653411e+01   6.96729227e+01   7.45953169e+01   7.00393269e+01   6.11732146e+01   6.30034175e+01   8.91267573e+01   9.18827839e+01   7.40158727e+01   7.45703784e+01   8.94477003e+01   1.09687926e+02   1.12856331e+02   1.09380682e+02   8.57854884e+01   8.26645523e+01   9.10991292e+01   1.22116380e+02   1.26984663e+02   1.25331224e+02   9.59937952e+01   9.17225785e+01   1.01824451e+02   1.30131798e+02   1.35680413e+02   1.27787086e+02   9.98175364e+01   9.33958048e+01   9.70304434e+01   1.39042957e+02   1.46693441e+02   1.38699192e+02   1.05128469e+02   9.86132343e+01   1.03445895e+02   1.44701853e+02   1.53212605e+02   1.46129594e+02   1.12767495e+02   1.05702414e+02   1.10361045e+02   1.50220822e+02   1.56071846e+02   1.53916040e+02   1.17338260e+02   1.11938704e+02   1.24103278e+02   1.54224576e+02   1.58527762e+02   1.49432651e+02   1.18601655e+02   1.11175249e+02   1.16261980e+02   1.58239931e+02   1.64668131e+02   1.59561795e+02   1.21402134e+02   1.15232726e+02   1.27135285e+02   1.62125657e+02   1.66805705e+02   1.58541739e+02   1.25027061e+02   1.17403784e+02   1.27500109e+02   1.63902513e+02   1.70389093e+02   1.59760745e+02   1.27433169e+02   1.22482819e+02   1.34504297e+02   1.67191996e+02   1.69868351e+02   1.65953440e+02   1.30130733e+02   1.26491284e+02   1.44632291e+02   1.69398359e+02   1.67963600e+02   1.32522494e+02   1.31314581e+02   1.69229926e+02   1.67643905e+02   1.34714955e+02   1.34577808e+02   1.69661986e+02   1.70812388e+02   1.51086757e+02   1.35745819e+02   1.39575602e+02   1.68430827e+02   1.70371096e+02   1.41382633e+02   1.50498796e+02   1.65975383e+02   1.60297855e+02   1.49380951e+02   1.59097714e+02   1.59059158e+02   2.31290861e+02   2.90420369e+02   3.78054049e+02   5.04957463e+02   6.70257065e+02   7.77908850e+02   7.73277328e+02   6.71100135e+02   5.36306934e+02   3.52155101e+02   2.43707251e+02   1.60025216e+02   1.16757676e+02   8.74490098e+01   6.70874666e+01   5.14989122e+01   3.95813146e+01   2.96862998e+01   2.22501876e+01   1.62762154e+01   1.15961624e+01   8.46607448e+00   6.02617310e+00   4.51471556e+00   3.13501962e+00   2.40780290e+00   1.63484426e+00   1.22359681e+00   8.93725532e-01   6.69887418e-01   5.01952688e-01   3.83960755e-01   2.87196464e-01   2.80889793e-01   
4.21991186e+01   5.46889297e+01   7.53925179e+01   8.37389598e+01   8.68398879e+01   8.89780460e+01   8.92496900e+01   9.73439781e+01   1.06174016e+02   1.01124597e+02   9.20424812e+01   9.95262133e+01   1.22202824e+02   1.20417652e+02   1.38812424e+02   1.43751290e+02   1.76114350e+02   2.23537947e+02   3.56381364e+02   4.46309921e+02   5.84847063e+02   7.63179612e+02   1.01723241e+03   1.29616992e+03   1.49311494e+03   1.52013015e+03   1.34748291e+03   1.03070940e+03   6.51255088e+02   4.75706976e+02   2.95493763e+02   2.15504593e+02   1.61545537e+02   1.24147117e+02   9.55633818e+01   7.35667010e+01   5.65357231e+01   4.34016707e+01   3.16858902e+01   2.31070859e+01   1.64390521e+01   1.16929436e+01   8.33471268e+00   6.08077914e+00   4.44416165e+00   3.23385285e+00   2.83595924e+00   1.97562642e+00   1.47605246e+00   1.07781311e+00   8.26318106e-01   6.18915027e-01   4.63816854e-01   3.46769133e-01   2.60046460e-01   2.54365386e-01   
5.73710797e+01   7.42405497e+01   1.03144396e+02   1.12443197e+02   1.17623528e+02   1.19127748e+02   1.19520654e+02   1.30524438e+02   1.41920464e+02   1.25785054e+02   1.34523010e+02   1.61237062e+02   1.66333071e+02   1.88713331e+02   2.38225169e+02   3.09886779e+02   4.74354135e+02   6.07321510e+02   7.76439846e+02   1.01380744e+03   1.35373066e+03   1.80288582e+03   2.29024506e+03   2.61048255e+03   2.75398727e+03   2.49665127e+03   1.94363325e+03   1.27123347e+03   6.87008221e+02   4.18504690e+02   3.12753822e+02   2.40358466e+02   1.89320629e+02   1.49361252e+02   1.17886820e+02   9.08638460e+01   6.63849375e+01   4.72337066e+01   3.27499236e+01   2.38761116e+01   1.69780020e+01   1.23645317e+01   8.81521288e+00   6.43396355e+00   4.70065298e+00   3.42269242e+00   2.62940004e+00   1.82472394e+00   1.36707838e+00   1.22106344e+00   9.34633824e-01   7.01111977e-01   5.25458848e-01   3.84254643e-01   2.88289314e-01   2.82026531e-01   
7.55770086e+01   9.77386550e+01   1.34024814e+02   1.45806575e+02   1.53562207e+02   1.55126543e+02   1.55662663e+02   1.70467565e+02   1.83864226e+02   1.65838087e+02   2.08632492e+02   2.80365071e+02   3.56419810e+02   6.03529368e+02   7.71841762e+02   1.00909028e+03   1.31737055e+03   1.75923459e+03   2.34576399e+03   3.19415528e+03   3.92582647e+03   4.22763164e+03   4.67196705e+03   4.42421172e+03   3.67147661e+03   2.53547234e+03   1.08242192e+03   6.94266648e+02   5.18456858e+02   3.88976113e+02   3.06856136e+02   2.42899018e+02   1.96714532e+02   1.59676572e+02   1.40725618e+02   1.48599767e+02   1.63308462e+02   1.51767904e+02   1.51770266e+02   
9.71992204e+01   1.25340967e+02   1.69426092e+02   1.84827056e+02   1.94990750e+02   1.97041946e+02   1.97743586e+02   2.16678789e+02   2.32349052e+02   2.11372345e+02   2.63873830e+02   3.49742508e+02   4.45142743e+02   7.90369404e+02   1.01165869e+03   1.32357641e+03   1.72742936e+03   2.30618872e+03   3.07387529e+03   4.18599784e+03   5.82113095e+03   6.81653072e+03   7.03187179e+03   7.26635996e+03   7.50598363e+03   7.03272146e+03   6.07093987e+03   4.66387858e+03   2.79768957e+03   1.40255654e+03   9.94618983e+02   7.44998876e+02   5.86413137e+02   4.63339111e+02   3.66532902e+02   2.98028090e+02   2.60125062e+02   2.54404081e+02   2.66257976e+02   2.81072470e+02   3.14817332e+02   3.14815970e+02   
1.22448948e+02   1.60323682e+02   2.12248100e+02   2.31073283e+02   2.45352408e+02   2.46227696e+02   2.47110740e+02   2.70831586e+02   2.89555386e+02   2.66707827e+02   2.92895002e+02   3.52826626e+02   4.51408848e+02   5.88254946e+02   1.00448483e+03   1.25340148e+03   1.64081598e+03   2.14035706e+03   2.78977294e+03   3.54422944e+03   4.48770654e+03   5.60185415e+03   7.10049302e+03   1.03534815e+04   1.10700805e+04   1.12893330e+04   1.14201022e+04   1.15090278e+04   1.14966123e+04   1.15311160e+04   1.16086161e+04   1.15915543e+04   1.13491013e+04   1.07588660e+04   9.71924409e+03   8.21335132e+03   6.15296056e+03   3.59661071e+03   2.04039578e+03   1.45037445e+03   1.08743054e+03   8.56550430e+02   6.76819398e+02   5.47513837e+02   4.43006487e+02   3.58392562e+02   2.90476944e+02   1.53986511e+02   1.12420806e+02   8.00928171e+01   5.84339699e+01   4.16619655e+01   3.03492810e+01   2.21396401e+01   1.57356604e+01   1.17579747e+01   8.36564440e+00   6.26517060e+00   4.35707793e+00   3.34346683e+00   2.32707391e+00   1.78138099e+00   1.26958288e+00   1.21275376e+00   9.76514802e-01   7.16219696e-01   5.49161797e-01   4.11230491e-01   3.16453873e-01   3.09586640e-01   
1.84809963e+02   2.40120754e+02   3.14105729e+02   3.41789387e+02   3.63944798e+02   3.65280433e+02   3.66637494e+02   4.03138710e+02   4.24929062e+02   3.97638333e+02   5.34884869e+02   6.97967937e+02   9.73275172e+02   1.49728430e+03   1.82333346e+03   2.32755123e+03   2.89347115e+03   3.55590348e+03   4.22387151e+03   4.94043294e+03   5.64210599e+03   6.32919049e+03   6.94689504e+03   7.55466296e+03   8.11694168e+03   8.63222807e+03   9.11032941e+03   9.55568819e+03   1.00086316e+04   1.06149964e+04   1.16614147e+04   1.22366815e+04   1.26635411e+04   1.27702746e+04   1.29460201e+04   1.29837793e+04   1.30521141e+04   1.30951852e+04   1.33111243e+04   1.35506408e+04   1.35858112e+04   1.37651366e+04   1.38516839e+04   1.38881483e+04   1.40429897e+04   1.43144439e+04   1.44641163e+04   1.45123915e+04   1.46590181e+04   1.48802795e+04   1.51037853e+04   1.54187670e+04   1.58065282e+04   1.61950520e+04   1.65570241e+04   1.68433599e+04   1.70774207e+04   1.72001734e+04   1.71256866e+04   1.67605674e+04   1.59569833e+04   1.46050454e+04   1.24535452e+04   9.56061868e+03   5.97208769e+03   3.67857272e+03   2.69423857e+03   2.03887084e+03   1.60996668e+03   1.30615340e+03   1.08830434e+03   9.56462616e+02   9.54513703e+02   1.03792518e+03   1.12116322e+03   1.26764116e+03   1.38522318e+03   1.33797004e+03   1.70726724e+03   1.95823901e+03   2.64597326e+03   6.04054209e+03   8.65848038e+03   1.13974578e+04   1.46682619e+04   1.86498985e+04   2.02480267e+04   1.93612207e+04   1.73980380e+04   1.45106667e+04   1.11641163e+04   6.56751328e+03   4.32956955e+03   3.28102773e+03   2.56644293e+03   1.90686040e+03   1.52418310e+03   1.22238431e+03   9.74679837e+02   7.83943260e+02   6.51582472e+02   5.43179191e+02   4.42816509e+02   3.41887111e+02   2.49885235e+02   1.77829296e+02   1.26390683e+02   8.99230240e+01   6.39842733e+01   4.66849858e+01   3.31802392e+01   2.48010453e+01   1.72078918e+01   1.31446120e+01   9.15248045e+00   6.68015920e+00   4.77537884e+00   3.39634245e+00   2.61606269e+00   1.77111360e+00   1.35999778e+00   9.92072667e-01   7.99167001e-01   5.85988303e-01   4.49798741e-01   3.45269926e-01   2.71983222e-01   2.66184394e-01   
2.65132188e+02   3.46501815e+02   4.45395273e+02   4.82644677e+02   5.14726077e+02   5.16629560e+02   5.18524247e+02   5.72537260e+02   5.91806522e+02   5.59834774e+02   7.80144880e+02   1.01875662e+03   2.10447831e+03   2.56047431e+03   3.18454113e+03   3.85269790e+03   4.49624580e+03   5.16445105e+03   5.78990381e+03   6.38031509e+03   6.92900665e+03   7.42902041e+03   7.87806495e+03   8.27480000e+03   8.62470455e+03   8.91884342e+03   9.18523003e+03   9.48783736e+03   9.91478847e+03   1.09281583e+04   1.65232224e+04   2.09198966e+04   2.20182650e+04   2.22455875e+04   
3.64960024e+02   4.73092567e+02   6.06406309e+02   6.55821806e+02   7.00343544e+02   7.02893530e+02   7.82440688e+02   7.90831622e+02   7.56172747e+02   8.29354316e+02   1.04801077e+03   1.36852882e+03   2.76553848e+03   3.36495359e+03   4.05348669e+03   4.76179285e+03   5.42953245e+03   6.09538315e+03   6.74529310e+03   7.31052401e+03   7.85626582e+03   8.31531925e+03   8.69198567e+03   9.02076199e+03   9.30609588e+03   9.55519908e+03   9.79188047e+03   1.00598339e+04   1.02669392e+04   1.11721177e+04   1.53557656e+04   2.32751258e+04   2.66458051e+04   2.67659856e+04   2.76517313e+04   1.84931986e+04   2.22902324e+04   2.45813085e+04   2.46260219e+04   
4.86507398e+02   6.33848051e+02   8.01882139e+02   8.66558644e+02   9.25549534e+02   9.29097157e+02   1.05367623e+03   1.00569935e+03   1.10294821e+03   1.39596469e+03   1.86282709e+03   2.45769836e+03   2.77571415e+03   3.73635946e+03   4.37679414e+03   5.13236131e+03   5.89074602e+03   6.63666516e+03   7.31999502e+03   7.94707473e+03   8.51217896e+03   9.00952119e+03   9.41466400e+03   9.76626363e+03   1.00551630e+04   1.03046162e+04   1.05344282e+04   1.07634089e+04   1.10773212e+04   1.17236778e+04   1.50810238e+04   2.56729649e+04   3.02444569e+04   3.13303408e+04   3.16508553e+04   2.99909623e+04   3.09733686e+04   3.10395937e+04   
6.31525696e+02   8.13366320e+02   1.03043583e+03   1.11510653e+03   1.18764868e+03   1.19219492e+03   1.19677005e+03   1.35356727e+03   1.30733113e+03   1.72782708e+03   2.30876888e+03   3.52399877e+03   3.97051144e+03   4.90714180e+03   5.54967470e+03   6.44514301e+03   7.24955661e+03   8.02917937e+03   8.72656512e+03   9.34914370e+03   9.86557420e+03   1.03107029e+04   1.06945294e+04   1.10077928e+04   1.12758469e+04   1.15041306e+04   1.17058659e+04   1.19291971e+04   1.21224329e+04   1.27149092e+04   1.61038483e+04   2.86081779e+04   3.39459078e+04   3.67674595e+04   3.82814447e+04   3.92083283e+04   3.92132292e+04   3.62225543e+04   3.82390958e+04   3.98228020e+04   3.75006101e+04   3.88978867e+04   4.02863269e+04   3.76898196e+04   3.91938838e+04   3.92204168e+04   
8.01109803e+02   1.02946111e+03   1.29468844e+03   1.40343307e+03   1.49517898e+03   1.50105408e+03   1.50693093e+03   1.70400770e+03   1.65042330e+03   2.32177825e+03   3.17168666e+03   4.78066393e+03   5.34694535e+03   6.28899624e+03   7.24111647e+03   8.14697132e+03   8.95892506e+03   9.72853324e+03   1.04043436e+04   1.09575524e+04   1.14348773e+04   1.18433953e+04   1.21737303e+04   1.24546499e+04   1.26809475e+04   1.28749251e+04   1.30738077e+04   1.33303125e+04   1.38475124e+04   1.68308815e+04   2.34519272e+04   3.21765365e+04   3.74382996e+04   3.95820154e+04   4.23480033e+04   4.42476015e+04   4.48809571e+04   4.49119510e+04   
9.97486442e+02   1.28436564e+03   1.60296097e+03   1.73504837e+03   1.84826930e+03   1.85567241e+03   1.86305152e+03   2.10592731e+03   2.03285289e+03   2.35135960e+03   3.20720700e+03   4.75699595e+03   5.87013154e+03   6.75976219e+03   7.83266620e+03   8.84901477e+03   9.80947289e+03   1.06525908e+04   1.13870762e+04   1.20209596e+04   1.25673143e+04   1.30088636e+04   1.33841929e+04   1.36854019e+04   1.39389359e+04   1.41511629e+04   1.43307866e+04   1.45164489e+04   1.46707752e+04   1.50698092e+04   1.81740677e+04   2.47707771e+04   3.48348405e+04   4.03697584e+04   4.33858258e+04   4.61643447e+04   4.80307344e+04   4.91285914e+04   4.91813973e+04   
1.22200497e+03   1.55698078e+03   1.94382974e+03   2.10343478e+03   2.23880086e+03   2.24757472e+03   2.25630452e+03   2.52749419e+03   2.45969677e+03   3.58920175e+03   5.11167077e+03   7.25630460e+03   8.14493409e+03   9.24975116e+03   1.02968978e+04   1.12831400e+04   1.21382368e+04   1.28693098e+04   1.35006759e+04   1.40413129e+04   1.44739577e+04   1.48379915e+04   1.51278869e+04   1.53693224e+04   1.55633933e+04   1.57328081e+04   1.58977693e+04   1.60206633e+04   1.64140913e+04   1.97889661e+04   2.67503607e+04   2.92527968e+04   2.92527975e+04   
1.47473988e+03   1.88578993e+03   2.33954539e+03   2.52925146e+03   2.69424943e+03   2.70475714e+03   2.71516035e+03   3.04127022e+03   2.97341851e+03   4.25846879e+03   6.06185276e+03   8.36881598e+03   9.82881821e+03   1.10410531e+04   1.21679945e+04   1.31999167e+04   1.40632828e+04   1.47935298e+04   1.54128301e+04   1.59038001e+04   1.63119957e+04   1.66324263e+04   1.68957635e+04   1.71021188e+04   1.72611278e+04   1.74027707e+04   1.75193600e+04   1.75711415e+04   1.79611533e+04   2.23713414e+04   2.23713400e+04   
1.75844634e+03   2.21834183e+03   2.76493422e+03   2.99482332e+03   3.17904099e+03   3.20384858e+03   3.21608446e+03   3.60400906e+03   3.52877034e+03   5.15904764e+03   7.44458674e+03   9.92334918e+03   1.15637337e+04   1.28865293e+04   1.40824709e+04   1.50801794e+04   1.59188232e+04   1.66245755e+04   1.72165883e+04   1.76803964e+04   1.80598215e+04   1.83529049e+04   1.85884930e+04   1.87652578e+04   1.89015042e+04   1.90206675e+04   1.90891328e+04   1.91038779e+04   1.94966238e+04   2.02991667e+04   2.02991639e+04   
2.07401208e+03   2.61186504e+03   3.25032520e+03   3.51171724e+03   3.72828108e+03   3.75701519e+03   3.77116294e+03   4.21737042e+03   4.18467534e+03   5.99462938e+03   8.77923610e+03   1.15238032e+04   1.33618472e+04   1.47014810e+04   1.59035051e+04   1.69097319e+04   1.77488060e+04   1.84467068e+04   1.90245277e+04   1.94688158e+04   1.98253738e+04   2.00981347e+04   2.03060990e+04   2.04569021e+04   2.05759207e+04   2.06116608e+04   2.06116608e+04   
2.42162802e+03   3.05163140e+03   3.78079823e+03   4.08333447e+03   4.34098022e+03   4.37389340e+03   4.39008678e+03   4.90259264e+03   4.86857083e+03   7.12652406e+03   1.07390065e+04   1.35296999e+04   1.53863637e+04   1.67179253e+04   1.79187746e+04   1.89814106e+04   1.97968406e+04   2.04658600e+04   2.10104306e+04   2.14300750e+04   2.17444315e+04   2.18152342e+04   2.18152345e+04   
3.09386220e+03   2.87538215e+03   3.20551813e+03   4.28131470e+03   5.06439682e+03   5.39426569e+03   5.73147175e+03   5.75193658e+03   6.39889373e+03   6.36750445e+03   9.49908141e+03   1.44322349e+04   1.73446270e+04   1.93931010e+04   2.08315273e+04   2.20877614e+04   2.30944643e+04   2.38880956e+04   2.44746329e+04   2.49218592e+04   2.52076498e+04   2.52076498e+04   
3.23897108e+03   3.10334245e+03   3.96041040e+03   4.16061296e+03   5.51298618e+03   6.51113852e+03   6.91783370e+03   7.33490180e+03   7.36054284e+03   8.26541889e+03   8.29376064e+03   1.26652570e+04   1.86860760e+04   2.17948123e+04   2.39254249e+04   2.55060278e+04   2.67697292e+04   2.77277726e+04   2.84436425e+04   2.89694415e+04   2.89936472e+04   2.90282565e+04   
3.33863335e+03   3.44188008e+03   4.70033382e+03   5.16870114e+03   7.18660306e+03   8.25467919e+03   8.70808109e+03   9.13984877e+03   9.17127156e+03   1.03070074e+04   1.04590853e+04   1.56596515e+04   2.21579622e+04   2.57080919e+04   2.82598935e+04   2.99853503e+04   3.12626190e+04   3.22075645e+04   3.26330222e+04   3.26618259e+04   
3.56279293e+03   4.12860374e+03   5.56561181e+03   6.24186494e+03   6.49272276e+03   8.55076837e+03   9.98979905e+03   1.05839608e+04   1.11493630e+04   1.11862133e+04   1.26228241e+04   1.28825441e+04   1.97283005e+04   2.67104725e+04   3.07007293e+04   3.33769628e+04   3.50712512e+04   3.62888532e+04   3.67821353e+04   3.98259586e+04   
4.00196253e+03   6.41892937e+03   7.40336564e+03   7.83568636e+03   1.04739962e+04   1.20977037e+04   1.27540382e+04   1.33946941e+04   1.34373973e+04   1.52416143e+04   1.56706853e+04   2.39905942e+04   3.11408149e+04   3.55686231e+04   3.84080074e+04   4.03462345e+04   4.15694872e+04   4.49140995e+04   
4.71005653e+03   7.15532021e+03   8.49757482e+03   9.26451256e+03   1.28887201e+04   1.44955284e+04   1.52184607e+04   1.57832234e+04   1.58324494e+04   1.79645817e+04   1.85917978e+04   2.82293654e+04   3.60020673e+04   4.06561312e+04   4.36599086e+04   4.56429545e+04   4.63162679e+04   5.06013030e+04   
5.23908791e+03   8.43392623e+03   1.00152387e+04   1.09200229e+04   1.53314801e+04   1.70170207e+04   1.78542573e+04   1.84081438e+04   1.84636334e+04   2.09757422e+04   2.16218828e+04   3.32264603e+04   4.11736761e+04   4.61745682e+04   4.93966072e+04   5.13896038e+04   5.14801375e+04   5.64620559e+04   
6.39381632e+03   9.60048955e+03   1.14294478e+04   1.26148179e+04   1.34229510e+04   1.79429392e+04   1.97382596e+04   2.07167799e+04   2.12161585e+04   2.12782142e+04   2.43351777e+04   2.54112692e+04   3.86864743e+04   4.70869590e+04   5.22028000e+04   5.54670637e+04   5.70934338e+04   6.25324756e+04   
8.00457691e+03   1.12734902e+04   1.33831356e+04   1.46331411e+04   2.08128298e+04   2.26482775e+04   2.37684434e+04   2.41900885e+04   2.42592913e+04   2.78909970e+04   2.90336013e+04   4.45701614e+04   5.32563018e+04   5.84972344e+04   6.18268121e+04   6.27502593e+04   6.88868731e+04   
8.78602235e+03   1.28522637e+04   1.52546771e+04   1.67114647e+04   2.36260972e+04   2.56573374e+04   2.69119154e+04   2.73792749e+04   2.74555420e+04   3.16495548e+04   3.30204457e+04   5.02535279e+04   5.93814303e+04   6.49403477e+04   6.82490277e+04   6.86808787e+04   7.49824397e+04   
1.10227992e+04   1.51196293e+04   1.78407942e+04   1.91534557e+04   2.66025302e+04   2.87788524e+04   3.01420474e+04   3.06612451e+04   3.07449175e+04   3.54996623e+04   3.79147998e+04   5.57603810e+04   6.48524765e+04   7.06775808e+04   7.41941765e+04   7.43062833e+04   8.20246330e+04   
1.20202911e+04   1.67722524e+04   1.98465596e+04   2.14810027e+04   2.97225200e+04   3.21231160e+04   3.36329686e+04   3.41992714e+04   3.42907863e+04   3.86082231e+04   4.01413586e+04   4.50776363e+04   6.30617287e+04   7.22407484e+04   7.81047012e+04   8.07210612e+04   8.65568105e+04   
1.49257300e+04   1.97375281e+04   2.27519666e+04   2.42500146e+04   3.29762545e+04   3.55742586e+04   3.71818402e+04   3.77990189e+04   3.78978883e+04   4.29083017e+04   4.42576363e+04   4.90103791e+04   6.77077665e+04   7.77205219e+04   8.39667937e+04   8.66644669e+04   9.42158236e+04   
1.61528113e+04   2.16447547e+04   2.50220501e+04   2.68071362e+04   3.63465424e+04   3.91651305e+04   4.09402260e+04   4.15998410e+04   4.17052463e+04   4.72661948e+04   4.91491084e+04   5.64144592e+04   7.48283249e+04   8.50432756e+04   9.12122191e+04   9.32312562e+04   9.96135983e+04   
1.96865287e+04   2.50741566e+04   2.85923246e+04   2.99051369e+04   3.99197931e+04   4.28570125e+04   4.47460968e+04   4.54498726e+04   4.55624875e+04   5.14065859e+04   5.35061561e+04   5.86009155e+04   7.90475959e+04   9.03066881e+04   9.70772579e+04   9.92039203e+04   1.04533577e+05   
2.11331744e+04   2.72070283e+04   3.11626401e+04   3.28254304e+04   4.35481529e+04   4.66896565e+04   4.87414348e+04   4.94851682e+04   4.96051801e+04   5.58534234e+04   5.85905170e+04   6.40545755e+04   8.56984863e+04   9.73640569e+04   1.04523366e+05   1.05759089e+05   1.10609946e+05   
2.53421186e+04   3.11100779e+04   3.46611034e+04   3.60501497e+04   4.72619880e+04   5.06103666e+04   5.27080157e+04   5.36307887e+04   5.37585430e+04   6.04780919e+04   6.39747813e+04   7.13774647e+04   9.35468150e+04   1.05249382e+05   1.12276734e+05   1.12375972e+05   1.18573814e+05   
2.70048881e+04   3.40728968e+04   3.78944119e+04   3.93404140e+04   5.10504084e+04   5.46076486e+04   5.68820031e+04   5.78620393e+04   5.79960340e+04   6.54053412e+04   6.88252711e+04   7.59174644e+04   9.82996985e+04   1.11009590e+05   1.18463673e+05   1.18563422e+05   1.21415921e+05   
3.19190577e+04   3.84761479e+04   4.19113158e+04   5.49968020e+04   5.87864898e+04   6.11443781e+04   6.21762017e+04   6.23181920e+04   7.00820574e+04   7.41771065e+04   8.17646380e+04   1.04993578e+05   1.18053595e+05   1.24917991e+05   1.28202233e+05   
3.37889036e+04   4.10328096e+04   4.51040144e+04   5.01314942e+04   5.99717142e+04   6.33518718e+04   6.60520981e+04   6.66671392e+04   6.68161149e+04   7.54431942e+04   7.98799560e+04   8.81807122e+04   1.12149631e+05   1.25436217e+05   1.31478309e+05   1.36168645e+05   
3.58199237e+04   4.38706504e+04   4.84425869e+04   5.01549783e+04   6.34058374e+04   6.74311879e+04   7.00953166e+04   7.12426697e+04   7.14001099e+04   8.07865279e+04   8.55429947e+04   9.40126498e+04   1.18885659e+05   1.32534813e+05   1.38041055e+05   1.41006264e+05   
4.14818142e+04   4.86139520e+04   5.27709169e+04   6.76053681e+04   7.19058460e+04   7.47488336e+04   7.59354643e+04   7.60993460e+04   8.60156549e+04   9.17479597e+04   1.00444802e+05   1.25075874e+05   1.39958930e+05   1.44743416e+05   1.48288782e+05   
4.36893099e+04   5.24535131e+04   5.66830340e+04   7.19925085e+04   7.64130488e+04   7.93619300e+04   8.05953642e+04   8.07659983e+04   9.13114641e+04   9.68576306e+04   1.04432181e+05   1.30700017e+05   1.45894217e+05   1.50985803e+05   1.54912092e+05   
4.60801769e+04   5.57388099e+04   6.04605859e+04   7.64733967e+04   8.09850265e+04   8.41558362e+04   8.54428687e+04   8.56203000e+04   9.68436229e+04   1.03261490e+05   1.11786373e+05   1.38257094e+05   1.53851364e+05   1.57540528e+05   1.64777702e+05   
5.25322547e+04   6.08374352e+04   6.49482215e+04   8.11447259e+04   8.57564141e+04   8.88449999e+04   9.03670567e+04   9.05517945e+04   1.02721854e+05   1.09428915e+05   1.18436814e+05   1.44180783e+05   1.60410731e+05   1.64043736e+05   1.68640544e+05   
5.50604570e+04   6.41852070e+04   6.89477305e+04   8.55690959e+04   9.04039216e+04   9.35292517e+04   9.53138113e+04   9.55056731e+04   1.08539901e+05   1.15707050e+05   1.24291710e+05   1.51532954e+05   1.67746863e+05   1.70385715e+05   1.77376784e+05   
5.77748916e+04   6.77715200e+04   7.30804820e+04   9.03113156e+04   9.51834309e+04   9.86248297e+04   1.00296412e+05   1.00494923e+05   1.14638072e+05   1.22099203e+05   1.31245115e+05   1.58506528e+05   1.74851199e+05   1.76709223e+05   1.83614499e+05   
6.50385221e+04   7.43063416e+04   7.81577740e+04   9.51983303e+04   1.00157379e+05   1.03688700e+05   1.05382692e+05   1.05587230e+05   1.20397978e+05   1.28333398e+05   1.36786679e+05   1.63455804e+05   1.81033080e+05   1.83079283e+05   1.86944371e+05   
6.78498286e+04   7.80189145e+04   8.25869429e+04   1.00151814e+05   1.05188322e+05   1.08843795e+05   1.10603205e+05   1.10814789e+05   1.26277528e+05   1.35218659e+05   1.44614293e+05   1.71410588e+05   1.88504224e+05   1.89242700e+05   1.95798814e+05   
7.08384179e+04   8.19359678e+04   8.69150502e+04   1.04978418e+05   1.10256144e+05   1.13995623e+05   1.15823649e+05   1.16043766e+05   1.32143896e+05   1.41580575e+05   1.50122104e+05   1.77911156e+05   1.95338076e+05   1.95465327e+05   2.01231611e+05   
7.89150919e+04   8.88849165e+04   9.21464817e+04   1.09755603e+05   1.15086992e+05   1.18870969e+05   1.20980112e+05   1.21205553e+05   1.38311849e+05   1.48082530e+05   1.56759170e+05   1.83278880e+05   2.01468916e+05   2.00831797e+05   
8.19775671e+04   9.29339506e+04   9.68277743e+04   1.14936931e+05   1.20295466e+05   1.24212403e+05   1.26379986e+05   1.26611198e+05   1.44690937e+05   1.55575063e+05   1.65387710e+05   1.92428587e+05   2.07412309e+05   2.07975996e+05   
8.52058204e+04   9.71682816e+04   1.01681681e+05   1.20085799e+05   1.25563044e+05   1.29496137e+05   1.31727748e+05   1.31966409e+05   1.51190755e+05   1.62517877e+05   1.72056227e+05   1.99540325e+05   2.13252020e+05   2.17530632e+05   
8.86140478e+04   1.01581313e+05   1.06536466e+05   1.25219265e+05   1.30767994e+05   1.34882452e+05   1.37177143e+05   1.37422003e+05   1.57655088e+05   1.69443557e+05   1.78570605e+05   2.05147485e+05   2.18987747e+05   2.18291786e+05   
9.75512008e+04   1.08845824e+05   1.12436316e+05   1.30546206e+05   1.36072778e+05   1.40366423e+05   1.42717908e+05   1.42967831e+05   1.64666588e+05   1.76846814e+05   1.88495151e+05   2.15798363e+05   2.24794037e+05   2.19129570e+05   
1.06459870e+05   1.20455036e+05   1.24839978e+05   1.43853685e+05   1.49564090e+05   1.54120451e+05   1.56611461e+05   1.56877396e+05   1.81360292e+05   1.95459573e+05   2.06862605e+05   2.33405613e+05   2.38112394e+05   2.42548247e+05   
1.21943697e+05   1.35339761e+05   1.57332282e+05   1.63211941e+05   1.68031007e+05   1.70670828e+05   1.70950926e+05   1.98572240e+05   2.13716236e+05   2.25355698e+05   2.50328062e+05   2.55347242e+05   
1.32073430e+05   1.46633114e+05   1.52240777e+05   1.71418786e+05   1.77233725e+05   1.82064266e+05   1.85172193e+05   1.85467819e+05   2.16291157e+05   2.33345618e+05   2.46360090e+05   2.61972320e+05   2.73457962e+05   
1.48969131e+05   1.64031656e+05   1.85734908e+05   1.91483400e+05   1.96666680e+05   1.99913353e+05   2.00222208e+05   2.37324515e+05   2.53724286e+05   2.68049891e+05   2.73356599e+05   2.85015551e+05   
1.67266856e+05   1.80164375e+05   2.00494113e+05   2.05925731e+05   2.11208027e+05   2.14606574e+05   2.14928919e+05   2.57438742e+05   2.74697617e+05   2.86410802e+05   2.93341789e+05   
1.78345570e+05   1.93312642e+05   2.15190575e+05   2.20575297e+05   2.26195859e+05   2.29748481e+05   2.30083155e+05   2.77494411e+05   2.97768249e+05   3.02699235e+05   2.96030290e+05   
2.14337044e+05   2.27870924e+05   2.45370131e+05   2.50105403e+05   2.55946175e+05   2.60139721e+05   2.60500199e+05   3.19635545e+05   3.36947142e+05   3.40369396e+05   3.37602875e+05   
2.48398969e+05   2.61165748e+05   2.76416360e+05   2.80578867e+05   2.86615913e+05   2.91126636e+05   2.91513528e+05   3.56532647e+05   3.79075116e+05   3.81582359e+05   
2.84592087e+05   2.95947865e+05   3.08107142e+05   3.11071361e+05   3.17169977e+05   3.22401238e+05   3.22810524e+05   3.93142840e+05   4.16635691e+05   4.17248957e+05   4.27490424e+05   
3.13274218e+05   3.31087101e+05   3.40467438e+05   3.42335396e+05   3.48666401e+05   3.54197338e+05   3.54626695e+05   4.31411370e+05   4.53928312e+05   4.55293958e+05   4.70984653e+05   
3.52139930e+05   3.68097305e+05   3.73462633e+05   3.74008118e+05   3.80235642e+05   3.86520470e+05   3.86971620e+05   4.68007826e+05   4.91129922e+05   4.93544864e+05   5.14476260e+05   
3.93006575e+05   4.05739986e+05   4.06954900e+05   4.05649495e+05   4.11529895e+05   4.18628974e+05   4.19101536e+05   4.99152783e+05   5.27437925e+05   5.31494068e+05   5.39277764e+05   
4.25285093e+05   4.44397757e+05   4.40793883e+05   4.37860640e+05   4.44210445e+05   4.51433253e+05   4.51936753e+05   5.34981954e+05   5.65104256e+05   5.71236532e+05   5.81121666e+05   
4.68412656e+05   4.83690568e+05   4.74949564e+05   4.69612466e+05   4.75468460e+05   4.85804100e+05   4.86336326e+05   5.74728328e+05   6.05344591e+05   6.12080548e+05   6.27404693e+05   
5.48255275e+05   5.64594817e+05   5.44910356e+05   5.40134884e+05   5.51764247e+05   5.58949929e+05   5.59547880e+05   6.54257721e+05   6.88263376e+05   6.97270080e+05   7.22503712e+05   
6.31829475e+05   6.48167228e+05   6.16163891e+05   6.12607184e+05   6.25358426e+05   6.34661604e+05   6.35266214e+05   7.34101813e+05   7.72386477e+05   7.82572805e+05   8.27907220e+05   
7.18696397e+05   7.32722322e+05   6.88791642e+05   6.86512992e+05   7.01076989e+05   7.11827414e+05   7.12514450e+05   8.10669153e+05   8.57282011e+05   8.70401853e+05   9.16821735e+05   
8.08750548e+05   7.82796274e+05   7.60146469e+05   7.74869573e+05   7.90173025e+05   7.90903394e+05   8.94997843e+05   9.44265819e+05   9.60319097e+05   9.95281349e+05   
9.01927126e+05   9.08114623e+05   8.33354282e+05   8.45832596e+05   8.64184368e+05   8.69933975e+05   8.70639869e+05   9.85752670e+05   1.03336555e+06   1.04806264e+06   1.09689161e+06   
9.84135402e+05   1.00164894e+06   9.11746530e+05   9.25281463e+05   9.44792358e+05   9.50814438e+05   9.51548382e+05   1.07931945e+06   1.12316233e+06   1.13829910e+06   1.18031189e+06   
1.08119219e+06   9.91026073e+05   1.00497719e+06   1.02584840e+06   1.03206314e+06   1.03290284e+06   1.16852674e+06   1.21255688e+06   1.22824249e+06   1.29877201e+06   
1.18112389e+06   1.18846174e+06   1.07100513e+06   1.08172813e+06   1.10310052e+06   1.11378122e+06   1.11456996e+06   1.26057792e+06   1.30238645e+06   1.31952404e+06   1.31842463e+06   1.39820481e+06   
1.26863221e+06   1.25521167e+06   1.15146536e+06   1.16280677e+06   1.18598200e+06   1.19504619e+06   1.19597694e+06   1.19685033e+06   1.34260966e+06   1.39074808e+06   1.40908737e+06   1.41135938e+06   1.50170072e+06   
1.37159171e+06   1.37728842e+06   1.23488244e+06   1.24165071e+06   1.26623256e+06   1.27797649e+06   1.27884351e+06   1.28013231e+06   1.42784651e+06   1.47915050e+06   1.50008228e+06   1.50319241e+06   1.60108738e+06   
1.61439326e+06   1.56421348e+06   1.44035126e+06   1.44800181e+06   1.47827203e+06   1.48716555e+06   1.48820730e+06   1.48952767e+06   1.63698860e+06   1.70419469e+06   1.72564034e+06   1.73317136e+06   1.86088841e+06   
1.88171486e+06   1.88502392e+06   1.72289405e+06   1.64933790e+06   1.68076367e+06   1.69698502e+06   1.69810598e+06   1.70388524e+06   1.83546193e+06   1.92879186e+06   1.95184689e+06   1.96275985e+06   2.10173577e+06   
2.13882461e+06   2.10203637e+06   1.96575341e+06   1.92373371e+06   1.86133532e+06   1.89454951e+06   1.91048086e+06   1.91151919e+06   1.96356353e+06   2.10274071e+06   2.16298931e+06   2.18526646e+06   2.19533687e+06   2.35800934e+06   
2.40212394e+06   2.40394534e+06   2.17794039e+06   2.06917937e+06   2.10343527e+06   2.12645015e+06   2.12753422e+06   2.12885878e+06   2.28898221e+06   2.38805910e+06   2.41405240e+06   2.43055124e+06   2.62774484e+06   
2.67078436e+06   2.68104764e+06   2.33653804e+06   2.29102650e+06   2.33006092e+06   2.34283433e+06   2.34417651e+06   2.34474923e+06   2.50894606e+06   2.61922029e+06   2.64566476e+06   2.66445412e+06   2.66516854e+06   2.83695835e+06   
2.94473677e+06   2.95813391e+06   2.56654462e+06   2.50068942e+06   2.54412277e+06   2.55927610e+06   2.56044252e+06   2.56204389e+06   2.72513952e+06   2.84926204e+06   2.87714820e+06   2.89564688e+06   2.89133147e+06   3.08526520e+06   
3.19959797e+06   3.22236752e+06   2.79607893e+06   2.71552302e+06   2.76205436e+06   2.77792958e+06   2.77913462e+06   2.78096326e+06   2.94227878e+06   3.07908646e+06   3.10963124e+06   3.12511545e+06   3.12672037e+06   3.35132960e+06   
3.47951254e+06   3.50175910e+06   3.02953451e+06   2.93165843e+06   2.98030279e+06   2.99674505e+06   2.99833734e+06   3.00040760e+06   3.16681743e+06   3.31206226e+06   3.34305073e+06   3.35926290e+06   3.36212888e+06   3.58391899e+06   
3.76423274e+06   3.78409883e+06   3.26618585e+06   3.14758886e+06   3.19899684e+06   3.21611313e+06   3.21739880e+06   3.21816920e+06   3.39342383e+06   3.54429555e+06   3.57150957e+06   3.59172487e+06   3.59801476e+06   3.60515983e+06   3.83364293e+06   
4.02840356e+06   4.05740512e+06   3.50022659e+06   3.36477803e+06   3.41791105e+06   3.43553783e+06   3.43683662e+06   3.43747046e+06   3.61134148e+06   3.77676565e+06   3.80485939e+06   3.82505418e+06   3.83151910e+06   3.83030007e+06   4.05819961e+06   
4.31805161e+06   4.34416342e+06   3.73904971e+06   3.58003661e+06   3.63729540e+06   3.65331499e+06   3.65511486e+06   3.65674742e+06   3.82997625e+06   4.00526174e+06   4.03338989e+06   4.04933190e+06   4.06158253e+06   4.06952539e+06   4.05948641e+06   4.07053663e+06   4.06099820e+06   4.07125814e+06   4.06179329e+06   4.06199007e+06   4.30339687e+06   
4.61213781e+06   4.63300217e+06   3.97815066e+06   3.79615125e+06   3.85527958e+06   3.87213776e+06   3.87389328e+06   3.87352806e+06   4.05940944e+06   4.23666516e+06   4.26743392e+06   4.27779230e+06   4.28854298e+06   4.27927645e+06   4.28956497e+06   4.28030191e+06   4.29571489e+06   4.28576915e+06   4.29635208e+06   4.28701979e+06   4.29816283e+06   4.28865529e+06   4.29894736e+06   4.28951520e+06   4.29998095e+06   4.28961145e+06   4.30106485e+06   4.29122511e+06   4.30183552e+06   4.29207590e+06   4.30289247e+06   4.29229010e+06   4.30399496e+06   4.30475555e+06   4.54826828e+06   
5.75686805e+06   5.78112795e+06   4.94085320e+06   4.65852092e+06   4.72859664e+06   4.74948129e+06   4.75167631e+06   4.75014322e+06   4.82627860e+06   4.97782664e+06   5.14993681e+06   5.18089670e+06   5.19504131e+06   5.18636429e+06   5.19649578e+06   5.19018595e+06   5.20569834e+06   5.19548225e+06   5.20651896e+06   5.19817321e+06   5.20765490e+06   5.19723866e+06   5.20892121e+06   5.19933617e+06   5.21005624e+06   5.19926969e+06   5.21134224e+06   5.20227545e+06   5.21257799e+06   5.20156220e+06   5.21397606e+06   5.20368742e+06   5.21510572e+06   5.20374843e+06   5.22268811e+06   5.21066544e+06   5.22352564e+06   5.21298570e+06   5.22441623e+06   5.21225242e+06   5.22566896e+06   5.21410191e+06   5.22660491e+06   5.21507834e+06   5.22783649e+06   5.21535812e+06   5.22913640e+06   5.21715658e+06   5.23002527e+06   5.21812251e+06   5.23129213e+06   5.21854572e+06   5.23259975e+06   5.22031008e+06   5.24154604e+06   5.22815742e+06   5.24228629e+06   5.24344279e+06   5.33102890e+06   
7.49205207e+06   7.53119610e+06   6.81534915e+06   6.05108339e+06   6.00413755e+06   6.05982499e+06   6.06122910e+06   6.25849694e+06   6.46746816e+06   6.51214676e+06   6.52875827e+06   6.53915609e+06   6.53158264e+06   6.54122043e+06   6.53469842e+06   6.54340275e+06   6.53725266e+06   6.54550188e+06   6.53707138e+06   6.54747939e+06   6.54114534e+06   6.54969619e+06   6.54059481e+06   6.55651407e+06   6.54615667e+06   6.55762759e+06   6.54736442e+06   6.55932310e+06   6.55014731e+06   6.56101349e+06   6.55192767e+06   6.56294892e+06   6.55189103e+06   6.56467024e+06   6.55462347e+06   6.56628094e+06   6.55634000e+06   6.56811019e+06   6.55636839e+06   6.56981786e+06   6.55903939e+06   6.57782039e+06   6.56487626e+06   6.57893650e+06   6.56688513e+06   6.58006213e+06   6.56672990e+06   6.58154779e+06   6.56802441e+06   6.58298547e+06   6.56942099e+06   6.58465613e+06   6.57188270e+06   6.58597096e+06   6.57329766e+06   6.58760378e+06   6.57358091e+06   6.58924762e+06   6.57590281e+06   6.59045718e+06   6.57601861e+06   6.59899925e+06   6.58331099e+06   6.59942021e+06   6.58517272e+06   6.60020783e+06   6.58500305e+06   6.60165825e+06   6.58642743e+06   6.60324512e+06   6.58857000e+06   6.60434905e+06   6.58970887e+06   6.60584827e+06   6.59035420e+06   6.60744014e+06   6.59235954e+06   6.60842777e+06   6.59342175e+06   6.62010251e+06   6.60381929e+06   6.62118615e+06   6.60580559e+06   6.62190815e+06   6.60551674e+06   6.62347244e+06   6.60735107e+06   6.62437943e+06   6.62583849e+06   6.87075130e+06   
1.05030295e+07   1.05218007e+07   9.62269566e+06   8.38609529e+06   8.19479039e+06   8.21999152e+06   8.22140733e+06   8.29259649e+06   8.45039504e+06   8.59962313e+06   8.73397535e+06   8.72756649e+06   8.73650725e+06   8.73011564e+06   8.73971311e+06   8.73304965e+06   8.74303970e+06   8.73603337e+06   8.74636720e+06   8.74051291e+06   8.74982902e+06   8.74432746e+06   8.75319410e+06   8.74508265e+06   8.75621223e+06   8.74933390e+06   8.75938128e+06   8.75023984e+06   8.76213800e+06   8.76784297e+06   8.75734978e+06   8.76989341e+06   8.75949444e+06   8.77252021e+06   8.76347348e+06   8.77524809e+06   8.76670565e+06   8.77787366e+06   8.76808835e+06   8.78046359e+06   8.76829778e+06   8.78276396e+06   8.77056298e+06   8.78531528e+06   8.77440890e+06   8.78775210e+06   8.77689832e+06   8.79741721e+06   8.78303430e+06   8.79889747e+06   8.78727134e+06   8.80090189e+06   8.78616789e+06   8.80318364e+06   8.78947105e+06   8.80511591e+06   8.79151366e+06   8.80740394e+06   8.79169721e+06   8.80958863e+06   8.79495955e+06   8.81141887e+06   8.79692752e+06   8.81368052e+06   8.79723701e+06   8.82500272e+06   8.80745610e+06   8.82648699e+06   8.81107193e+06   8.82806581e+06   8.81003521e+06   8.82989718e+06   8.81174329e+06   8.83196160e+06   8.81465933e+06   8.83351592e+06   8.81625764e+06   8.83557220e+06   8.81694915e+06   8.83768321e+06   8.81972737e+06   8.83913927e+06   8.82024617e+06   8.84122635e+06   8.82220898e+06   8.85497906e+06   8.83516272e+06   8.85639375e+06   8.83644351e+06   8.85816128e+06   8.83941092e+06   8.85929260e+06   8.83919584e+06   8.86137483e+06   8.84164894e+06   8.86266960e+06   8.84233069e+06   8.86462300e+06   8.84426152e+06   8.86643871e+06   8.84663806e+06   8.86797460e+06   8.84797124e+06   8.88428237e+06   8.86302686e+06   8.88531037e+06   8.86423187e+06   8.88740709e+06   8.86649141e+06   8.88822351e+06   8.86737787e+06   8.89019284e+06   8.86890630e+06   8.89186504e+06   8.87147842e+06   8.87205434e+06   8.89493839e+06   
1.35123726e+07   1.35431454e+07   1.23989727e+07   1.07193113e+07   1.02389619e+07   1.03473262e+07   1.03529776e+07   1.03542272e+07   1.04315793e+07   1.04806516e+07   1.06564005e+07   1.08035409e+07   1.08804999e+07   1.09228169e+07   1.09135815e+07   1.09253198e+07   1.09178509e+07   1.09289017e+07   1.09220198e+07   1.09326514e+07   1.09226880e+07   1.09361847e+07   1.09277651e+07   1.09399317e+07   1.09320582e+07   1.09435937e+07   1.09323156e+07   1.09469499e+07   1.09372485e+07   1.09575145e+07   1.09440445e+07   1.09598864e+07   1.09485485e+07   1.09630459e+07   1.09488513e+07   1.09658391e+07   1.09549229e+07   1.09690402e+07   1.09539911e+07   1.09717727e+07   1.09599311e+07   1.09748097e+07   1.09589295e+07   1.09774892e+07   1.09614688e+07   1.09803951e+07   1.09658474e+07   1.09942176e+07   1.09757464e+07   1.09961708e+07   1.09806617e+07   1.09984405e+07   1.09794152e+07   1.10010911e+07   1.09833346e+07   1.10032647e+07   1.09855498e+07   1.10059229e+07   1.09859596e+07   1.10085275e+07   1.09896629e+07   1.10105567e+07   1.09900415e+07   1.10131262e+07   1.09924351e+07   1.10158496e+07   1.10275648e+07   1.10060953e+07   1.10295355e+07   1.10099207e+07   1.10313219e+07   1.10091196e+07   1.10336056e+07   1.10112389e+07   1.10357195e+07   1.10144437e+07   1.10379320e+07   1.10162502e+07   1.10403471e+07   1.10174378e+07   1.10428611e+07   1.10216666e+07   1.10448508e+07   1.10219584e+07   1.10471860e+07   1.10242587e+07   1.10646436e+07   1.10409153e+07   1.10661174e+07   1.10439154e+07   1.10678866e+07   1.10438853e+07   1.10702989e+07   1.10461912e+07   1.10713583e+07   1.10476438e+07   1.10737127e+07   1.10499395e+07   1.10761692e+07   1.10527008e+07   1.10777504e+07   1.10542670e+07   1.10799562e+07   1.10559475e+07   1.11011112e+07   1.10759480e+07   1.11022271e+07   1.10775020e+07   1.11044373e+07   1.10798909e+07   1.11058389e+07   1.10809896e+07   1.11079553e+07   1.10830347e+07   1.11102819e+07   1.10855296e+07   1.11117982e+07   1.10869576e+07   1.11145049e+07   1.11168064e+07   1.12032891e+07   
1.65769931e+07   1.65992332e+07   1.51992905e+07   1.30446921e+07   1.23356822e+07   1.24494782e+07   1.24504795e+07   1.25291596e+07   1.25454494e+07   1.27150909e+07   1.28579134e+07   1.29633217e+07   1.30031332e+07   1.30136469e+07   1.30336786e+07   1.30419079e+07   1.30614230e+07   1.30492860e+07   1.30638267e+07   1.30556088e+07   1.30679395e+07   1.30555599e+07   1.30715544e+07   1.30627414e+07   1.30759112e+07   1.30626154e+07   1.30795242e+07   1.30698512e+07   1.30837593e+07   1.30694738e+07   1.30872417e+07   1.30766001e+07   1.30998125e+07   1.30830773e+07   1.31022848e+07   1.30855804e+07   1.31054919e+07   1.30905440e+07   1.31087980e+07   1.30938570e+07   1.31123372e+07   1.30942326e+07   1.31155551e+07   1.30991359e+07   1.31186380e+07   1.31022473e+07   1.31220253e+07   1.31026741e+07   1.31251651e+07   1.31073525e+07   1.31163346e+07   1.31416045e+07   1.31198134e+07   1.31439439e+07   1.31213407e+07   1.31468184e+07   1.31259566e+07   1.31492890e+07   1.31284234e+07   1.31522096e+07   1.31291375e+07   1.31546357e+07   1.31349217e+07   1.31573663e+07   1.31342753e+07   1.31601551e+07   1.31369249e+07   1.31638561e+07   1.31409342e+07   1.31807458e+07   1.31557671e+07   1.31832576e+07   1.31599288e+07   1.31850683e+07   1.31594749e+07   1.31871528e+07   1.31630176e+07   1.31891600e+07   1.31650612e+07   1.31918901e+07   1.31666053e+07   1.31947795e+07   1.31711718e+07   1.31978309e+07   1.31715038e+07   1.32006362e+07   1.31741469e+07   1.32026074e+07   1.31775169e+07   1.32241490e+07   1.31969970e+07   1.32254859e+07   1.31995022e+07   1.32270129e+07   1.32010233e+07   1.32295347e+07   1.32028701e+07   1.32321878e+07   1.32065668e+07   1.32342091e+07   1.32074233e+07   1.32367282e+07   1.32099513e+07   1.32405268e+07   1.32128195e+07   1.32411560e+07   1.32142836e+07   1.32436866e+07   1.32657322e+07   1.32381908e+07   1.32676229e+07   1.32400397e+07   1.32700635e+07   1.32428722e+07   1.32731657e+07   1.32441244e+07   1.32742165e+07   1.32464642e+07   1.32767905e+07   1.32491715e+07   1.32785102e+07   1.32508206e+07   1.32809164e+07   1.32531648e+07   1.32834590e+07   1.32558197e+07   1.32576091e+07   1.32878176e+07   
1.96873659e+07   1.96866320e+07   1.80119901e+07   1.53884374e+07   1.44299034e+07   1.44325254e+07   1.45173205e+07   1.45183914e+07   1.45941718e+07   1.46126145e+07   1.45998345e+07   1.46158833e+07   1.46023925e+07   1.46223295e+07   1.46092668e+07   1.46260538e+07   1.47908759e+07   1.49041174e+07   1.49805340e+07   1.50407968e+07   1.50758815e+07   1.50985312e+07   1.51094015e+07   1.51313597e+07   1.51394909e+07   1.51612832e+07   1.51666247e+07   1.51757741e+07   1.51606256e+07   1.51786012e+07   1.51676741e+07   1.51828068e+07   1.51669371e+07   1.51863986e+07   1.51745521e+07   1.51907007e+07   1.51738045e+07   1.51942907e+07   1.51813683e+07   1.52084590e+07   1.51892272e+07   1.52111705e+07   1.51940237e+07   1.52144096e+07   1.51943828e+07   1.52177803e+07   1.52015716e+07   1.52214031e+07   1.52004181e+07   1.52246421e+07   1.52034846e+07   1.52282269e+07   1.52087188e+07   1.52314535e+07   1.52119293e+07   1.52350024e+07   1.52126129e+07   1.52232750e+07   1.52540328e+07   1.52296335e+07   1.52560019e+07   1.52353275e+07   1.52597674e+07   1.52342890e+07   1.52617005e+07   1.52370935e+07   1.52649398e+07   1.52414501e+07   1.52686247e+07   1.52422894e+07   1.52705854e+07   1.52453565e+07   1.52739695e+07   1.52496037e+07   1.52764958e+07   1.52507761e+07   1.52971236e+07   1.52698167e+07   1.52986296e+07   1.52719866e+07   1.53015933e+07   1.52766449e+07   1.53037968e+07   1.52767445e+07   1.53068982e+07   1.52803318e+07   1.53090110e+07   1.52818681e+07   1.53121299e+07   1.52846942e+07   1.53153291e+07   1.52893187e+07   1.53177435e+07   1.52903498e+07   1.53207896e+07   1.52932521e+07   1.53238523e+07   1.53438265e+07   1.53159594e+07   1.53460676e+07   1.53183354e+07   1.53488174e+07   1.53220324e+07   1.53509842e+07   1.53230109e+07   1.53537169e+07   1.53257398e+07   1.53567343e+07   1.53295056e+07   1.53589373e+07   1.53308001e+07   1.53616233e+07   1.53335641e+07   1.53644857e+07   1.53369993e+07   1.53667059e+07   1.53892056e+07   1.53623654e+07   1.53912957e+07   1.53643447e+07   1.53939997e+07   1.53669286e+07   1.53967284e+07   1.53702209e+07   1.53987777e+07   1.53717502e+07   1.54014730e+07   1.53748236e+07   1.54037155e+07   1.53765318e+07   1.54062853e+07   1.53792277e+07   1.54090506e+07   1.53822956e+07   1.54113333e+07   1.53842618e+07   1.54348752e+07   1.54134097e+07   
