0.00000000e+00   0.00000000e+00   0.00000000e+00   0.00000000e+00   0.00000000e+00   0.00000000e+00   0.00000000e+00   0.00000000e+00   0.00000000e+00   0.00000000e+00   0.00000000e+00   0.00000000e+00   0.00000000e+00   1.74411735e-02   1.44339721e-02   1.22092109e-02   1.13320735e-02   1.06683672e-02   1.02129366e-02   9.86163284e-03   9.53442341e-03   9.33028907e-03   9.13189585e-03   8.99621403e-03   8.87583795e-03   8.77482713e-03   8.77483421e-03   
0.00000000e+00   0.00000000e+00   0.00000000e+00   0.00000000e+00   0.00000000e+00   0.00000000e+00   0.00000000e+00   0.00000000e+00   0.00000000e+00   1.83167088e-02   1.59219227e-02   1.41709625e-02   1.22802631e-02   1.22146316e-02   
0.00000000e+00   0.00000000e+00   0.00000000e+00   0.00000000e+00   0.00000000e+00   0.00000000e+00   0.00000000e+00   0.00000000e+00   1.94865438e-02   1.62300047e-02   1.41903229e-02   1.35595401e-02   1.36379371e-02   1.38570173e-02   1.44035695e-02   1.45085154e-02   
0.00000000e+00   0.00000000e+00   0.00000000e+00   0.00000000e+00   0.00000000e+00   0.00000000e+00   0.00000000e+00   2.02161648e-02   1.68605133e-02   1.49592655e-02   1.46542288e-02   1.48682858e-02   1.55246500e-02   1.63490240e-02   1.68754187e-02   1.71012772e-02   1.70680179e-02   1.70108105e-02   1.69548222e-02   1.68971126e-02   1.66612824e-02   1.64909734e-02   1.62365358e-02   1.59337459e-02   1.47165124e-02   1.46605957e-02   1.50585583e-02   1.63408391e-02   1.68529550e-02   1.72175004e-02   1.72133671e-02   1.71587034e-02   1.70937665e-02   1.70296561e-02   1.69247427e-02   1.67514345e-02   1.65475345e-02   1.62462524e-02   1.56254191e-02   1.46839317e-02   1.47145549e-02   1.50687491e-02   1.63480471e-02   1.68674453e-02   1.72159517e-02   1.72311189e-02   1.71575129e-02   1.70875894e-02   1.70099648e-02   1.67617177e-02   1.65501743e-02   1.62600124e-02   1.56925882e-02   1.47345473e-02   1.47609210e-02   1.51089505e-02   1.63823727e-02   1.69324569e-02   1.72431053e-02   1.72182048e-02   1.71578730e-02   1.70798393e-02   1.69977572e-02   1.67260442e-02   1.65353772e-02   1.62329352e-02   1.56130586e-02   1.47140200e-02   1.48274067e-02   1.51896796e-02   1.63883551e-02   1.64232400e-02   
0.00000000e+00   0.00000000e+00   0.00000000e+00   0.00000000e+00   0.00000000e+00   0.00000000e+00   0.00000000e+00   2.09264496e-02   1.73633242e-02   1.56535872e-02   1.71496411e-02   1.71210897e-02   1.69844042e-02   1.65466419e-02   1.62268696e-02   1.57175599e-02   1.55318469e-02   1.58498764e-02   1.71897305e-02   1.76828899e-02   1.77484288e-02   1.76859543e-02   1.75934526e-02   1.74896772e-02   1.71981111e-02   1.69612102e-02   1.65860511e-02   1.56802728e-02   1.55221113e-02   1.60173938e-02   1.70886714e-02   1.76195861e-02   1.78125940e-02   1.77317293e-02   1.76463554e-02   1.75465597e-02   1.72071539e-02   1.69517233e-02   1.65512110e-02   1.55171519e-02   1.55822074e-02   1.61219341e-02   1.71665893e-02   1.76967895e-02   1.78004014e-02   1.77200678e-02   1.76108295e-02   1.74987288e-02   1.71827591e-02   1.69079908e-02   1.64826054e-02   1.54666846e-02   1.56399323e-02   1.64171406e-02   1.72925435e-02   1.77217368e-02   1.77580397e-02   1.76539448e-02   1.75373824e-02   1.73688144e-02   1.71363415e-02   1.68843146e-02   1.64623481e-02   1.54899897e-02   1.56385541e-02   1.62702830e-02   1.71470520e-02   1.76704928e-02   1.77541817e-02   1.76637689e-02   1.75468038e-02   1.74031463e-02   1.71183557e-02   1.68666066e-02   1.64454657e-02   1.55258134e-02   1.56050820e-02   1.61117919e-02   1.71415638e-02   1.76675405e-02   1.77425182e-02   1.76485642e-02   1.75314753e-02   1.73853341e-02   1.71105647e-02   1.68610005e-02   1.64431502e-02   1.55328250e-02   1.56291554e-02   1.61230418e-02   1.71523669e-02   1.76686137e-02   1.77074311e-02   1.76020397e-02   1.74887879e-02   1.73188808e-02   1.70585830e-02   1.67816283e-02   1.63805206e-02   1.55307719e-02   1.57045789e-02   1.65090997e-02   1.73193338e-02   1.77060596e-02   1.76742324e-02   1.75890484e-02   1.74730775e-02   1.72974191e-02   1.70308077e-02   1.67342834e-02   1.62509828e-02   1.55639715e-02   1.58529276e-02   1.72039014e-02   1.76413063e-02   1.76483748e-02   1.75658053e-02   1.74465274e-02   1.72773520e-02   1.70049004e-02   1.67074208e-02   1.62235326e-02   1.55707591e-02   1.58300567e-02   1.71510143e-02   1.76417501e-02   1.76508237e-02   1.75471033e-02   1.74257798e-02   1.72134272e-02   1.69520289e-02   1.66307145e-02   1.60673181e-02   1.56037109e-02   1.59997261e-02   1.71346148e-02   1.76067519e-02   1.76112527e-02   1.75086779e-02   1.73889342e-02   1.69875150e-02   1.67021370e-02   1.62352045e-02   1.55692409e-02   1.57525760e-02   1.71233896e-02   1.75600185e-02   1.75756815e-02   1.74673837e-02   1.73300294e-02   1.69237617e-02   1.66148634e-02   1.61189644e-02   1.55967249e-02   1.58576572e-02   1.70624880e-02   1.75131345e-02   1.75300428e-02   1.74159358e-02   1.72917827e-02   1.69105717e-02   1.66370572e-02   1.62276126e-02   1.55649653e-02   1.57466813e-02   1.71335449e-02   1.75222600e-02   1.74890126e-02   1.73986693e-02   1.72673166e-02   1.68690913e-02   1.65548774e-02   1.60546689e-02   1.56042870e-02   1.59959663e-02   1.70418067e-02   1.74687634e-02   1.74780394e-02   1.73657306e-02   1.72377932e-02   1.68603118e-02   1.65611467e-02   1.60801430e-02   1.55783492e-02   1.58212419e-02   1.70555830e-02   1.74516547e-02   1.74278754e-02   1.73395922e-02   1.72062842e-02   1.68157963e-02   1.65504114e-02   1.60801488e-02   1.55751781e-02   1.58287630e-02   1.70896934e-02   1.74334786e-02   1.73941320e-02   1.73047824e-02   1.71756969e-02   1.68059756e-02   1.65035947e-02   1.60213063e-02   1.56076225e-02   1.59796033e-02   1.70106693e-02   1.73963222e-02   1.73659000e-02   1.72751378e-02   1.71346859e-02   1.67797342e-02   1.64697326e-02   1.59796950e-02   1.56037064e-02   1.60901104e-02   1.70005774e-02   1.73602211e-02   1.73083329e-02   1.72102831e-02   1.70637660e-02   1.67542313e-02   1.64537614e-02   1.59766125e-02   1.55950788e-02   1.60294950e-02   1.69541938e-02   1.73234733e-02   1.72791902e-02   1.71825261e-02   1.70338257e-02   1.67216313e-02   1.64157421e-02   1.59338894e-02   1.55975186e-02   1.60659357e-02   1.69551562e-02   1.72925391e-02   1.72529682e-02   1.71622504e-02   1.70247423e-02   1.67007101e-02   1.64022470e-02   1.59304997e-02   1.55854194e-02   1.60055984e-02   1.69071303e-02   1.72559417e-02   1.72237422e-02   1.71365841e-02   1.69981652e-02   1.66744555e-02   1.63750078e-02   1.59035125e-02   1.55911297e-02   1.60590567e-02   1.69274082e-02   1.72206467e-02   1.71577921e-02   1.70361102e-02   1.68263538e-02   1.65713746e-02   1.62607144e-02   1.57540968e-02   1.55812350e-02   1.60313435e-02   1.68999597e-02   1.71853112e-02   1.71178499e-02   1.69958529e-02   1.65814625e-02   1.63035715e-02   1.58307350e-02   1.55901456e-02   1.60178285e-02   1.68732788e-02   1.71492111e-02   1.70770484e-02   1.69590250e-02   1.65743628e-02   1.63151261e-02   1.58654764e-02   1.55388296e-02   1.58421575e-02   1.68283684e-02   1.70970938e-02   1.70487178e-02   1.69588803e-02   1.68061269e-02   1.65388958e-02   1.62842748e-02   1.58421752e-02   1.55299601e-02   1.58252177e-02   1.67943745e-02   1.70462350e-02   1.69970452e-02   1.68801985e-02   1.64836060e-02   1.62126805e-02   1.57553261e-02   1.55419023e-02   1.59288225e-02   1.67773114e-02   1.70228206e-02   1.69710319e-02   1.68561136e-02   1.64669338e-02   1.61985264e-02   1.57451233e-02   1.55231195e-02   1.58925940e-02   1.67471390e-02   1.69650221e-02   1.69222758e-02   1.68100334e-02   1.64131612e-02   1.61387387e-02   1.56841447e-02   1.55145333e-02   1.60040975e-02   1.67227240e-02   1.69159444e-02   1.68612764e-02   1.67485204e-02   1.63656937e-02   1.60841179e-02   1.56283756e-02   1.55455471e-02   1.61531121e-02   1.67399564e-02   1.68781315e-02   1.68010627e-02   1.66667063e-02   1.63727536e-02   1.61196743e-02   1.56905147e-02   1.54757372e-02   1.60106806e-02   1.66884437e-02   1.68202856e-02   1.67403827e-02   1.66084079e-02   1.63287339e-02   1.60773894e-02   1.57230217e-02   1.54458159e-02   1.58045159e-02   1.66149301e-02   1.67818591e-02   1.67170678e-02   1.65962632e-02   1.62801738e-02   1.60156428e-02   1.55842352e-02   1.54650571e-02   1.59541538e-02   1.66160088e-02   1.67270929e-02   1.66570718e-02   1.65250070e-02   1.62429853e-02   1.59842990e-02   1.56281956e-02   1.54445214e-02   1.58441060e-02   1.65448045e-02   1.66806736e-02   1.66216474e-02   1.65034775e-02   1.62061715e-02   1.59477727e-02   1.55945265e-02   1.54458733e-02   1.59360589e-02   1.65161589e-02   1.66265263e-02   1.65557968e-02   1.64162725e-02   1.61673870e-02   1.59126535e-02   1.55654543e-02   1.54228141e-02   1.58920396e-02   1.64695966e-02   1.65658288e-02   1.65156277e-02   1.64000367e-02   1.61192343e-02   1.58640711e-02   1.55204371e-02   1.53607326e-02   1.57026227e-02   1.64056885e-02   1.65119769e-02   1.64648821e-02   1.63511494e-02   1.60677442e-02   1.58070598e-02   1.54648710e-02   1.53624547e-02   1.57250042e-02   1.63520909e-02   1.64506871e-02   1.63824313e-02   1.62349068e-02   1.60069849e-02   1.57343128e-02   1.53448655e-02   1.53985906e-02   1.63435834e-02   1.64050536e-02   1.63277910e-02   1.59576832e-02   1.56751633e-02   1.53012391e-02   1.54274375e-02   1.62832948e-02   1.63368032e-02   1.62807456e-02   1.61329079e-02   1.58946633e-02   1.56585150e-02   1.53346856e-02   1.53567984e-02   1.62355906e-02   1.62753026e-02   1.61898653e-02   1.58775570e-02   1.56134294e-02   1.52975923e-02   1.53462260e-02   1.61763468e-02   1.61925979e-02   1.61014317e-02   1.58253606e-02   1.55668808e-02   1.52624566e-02   1.53246561e-02   1.61147437e-02   1.61326398e-02   1.60470861e-02   1.57654867e-02   1.55491375e-02   1.52531640e-02   1.53369458e-02   1.59985499e-02   1.60453479e-02   1.59668997e-02   1.56647469e-02   1.54317174e-02   1.51683147e-02   1.54284088e-02   1.58800824e-02   1.59038356e-02   1.57753143e-02   1.55464417e-02   1.53031628e-02   1.51548246e-02   1.56373398e-02   1.56534667e-02   1.53578778e-02   1.51836318e-02   1.53934596e-02   1.53722360e-02   1.52444239e-02   1.52620505e-02   1.33315994e-02   1.26224029e-02   1.25438748e-02   1.23805323e-02   1.22753337e-02   1.21703219e-02   1.21247407e-02   1.21276164e-02   1.21762235e-02   1.22263752e-02   1.22830000e-02   1.23636504e-02   1.25377600e-02   1.26516977e-02   1.28820665e-02   1.28956698e-02   1.28817154e-02   1.28476592e-02   1.28049388e-02   1.27265142e-02   1.25510957e-02   1.24470621e-02   1.23666138e-02   1.22726618e-02   1.21795623e-02   1.20831698e-02   1.19495164e-02   1.17838698e-02   1.15918709e-02   1.14179061e-02   1.12286943e-02   1.10536253e-02   1.08591333e-02   1.06793068e-02   1.05066850e-02   1.03028220e-02   1.01516213e-02   9.97094402e-03   9.83493794e-03   9.72311307e-03   9.61645418e-03   9.53194042e-03   9.45676598e-03   9.45155004e-03   
0.00000000e+00   0.00000000e+00   0.00000000e+00   0.00000000e+00   0.00000000e+00   0.00000000e+00   2.27870554e-02   2.00023429e-02   1.76238077e-02   1.72865655e-02   1.86560724e-02   1.86072277e-02   1.84439778e-02   1.79440732e-02   1.76210878e-02   1.72019309e-02   1.71337050e-02   1.87641447e-02   1.88213418e-02   1.86994971e-02   1.84916140e-02   1.80949830e-02   1.77260820e-02   1.71672467e-02   1.71519717e-02   1.77418492e-02   1.87217188e-02   1.90452251e-02   1.89474710e-02   1.88112825e-02   1.86169355e-02   1.82868903e-02   1.79820002e-02   1.74760202e-02   1.70241942e-02   1.73020906e-02   1.86261549e-02   1.90159680e-02   1.89157830e-02   1.87769649e-02   1.85676898e-02   1.82129833e-02   1.78660118e-02   1.73097307e-02   1.70070237e-02   1.74140378e-02   1.85887712e-02   1.89753229e-02   1.88735489e-02   1.87309160e-02   1.85283297e-02   1.81586279e-02   1.77977241e-02   1.72372477e-02   1.70183065e-02   1.75905792e-02   1.86280648e-02   1.89375491e-02   1.88347950e-02   1.86886297e-02   1.84566376e-02   1.81145359e-02   1.77469904e-02   1.71899972e-02   1.69497770e-02   1.86545879e-02   1.88760342e-02   1.87607181e-02   1.86053333e-02   1.82968753e-02   1.79537322e-02   1.75582990e-02   1.69881559e-02   1.70492835e-02   1.86399349e-02   1.88669031e-02   1.87646667e-02   1.86156519e-02   1.83768058e-02   1.80068888e-02   1.76702844e-02   1.71227255e-02   1.69814719e-02   1.75822725e-02   1.85321075e-02   1.88328418e-02   1.87267293e-02   1.85759920e-02   1.83103174e-02   1.79826278e-02   1.75762134e-02   1.70241660e-02   1.70559225e-02   1.85777659e-02   1.87986757e-02   1.86941167e-02   1.85430989e-02   1.82749451e-02   1.79374362e-02   1.75924781e-02   1.70532772e-02   1.69307977e-02   1.85419005e-02   1.86926793e-02   1.85474296e-02   1.83572730e-02   1.78742710e-02   1.75322589e-02   1.70077774e-02   1.69406631e-02   1.84817564e-02   1.86088698e-02   1.84383041e-02   1.81952032e-02   1.78013496e-02   1.74437148e-02   1.70108950e-02   1.70669856e-02   1.84822465e-02   1.86592340e-02   1.85314067e-02   1.83397397e-02   1.78440883e-02   1.75100475e-02   1.69941060e-02   1.69423080e-02   1.76406683e-02   1.84901636e-02   1.85869717e-02   1.84783735e-02   1.82878660e-02   1.78168366e-02   1.74192308e-02   1.69160820e-02   1.69742430e-02   1.84453583e-02   1.85386597e-02   1.84295302e-02   1.82442254e-02   1.77752198e-02   1.74488049e-02   1.69495531e-02   1.70302357e-02   1.83943970e-02   1.85249061e-02   1.83790851e-02   1.81717324e-02   1.77658736e-02   1.73759257e-02   1.69549350e-02   1.69435475e-02   1.83640938e-02   1.84459907e-02   1.83332385e-02   1.81230312e-02   1.77104046e-02   1.73878424e-02   1.69797222e-02   1.69400607e-02   1.76271983e-02   1.83420482e-02   1.84020579e-02   1.82971807e-02   1.81130760e-02   1.76578563e-02   1.73228983e-02   1.69186349e-02   1.68925031e-02   1.76240460e-02   1.83259988e-02   1.83381975e-02   1.82134572e-02   1.79864639e-02   1.76101213e-02   1.72656016e-02   1.68681190e-02   1.69285063e-02   1.82609819e-02   1.83094901e-02   1.81983887e-02   1.79882973e-02   1.75884340e-02   1.72535843e-02   1.68608802e-02   1.68455179e-02   1.81352584e-02   1.82079888e-02   1.80895517e-02   1.78380019e-02   1.74863707e-02   1.71246637e-02   1.68100950e-02   1.80836584e-02   1.81020916e-02   1.79541027e-02   1.74093660e-02   1.70327522e-02   1.68064487e-02   1.71026975e-02   1.80919731e-02   1.81730554e-02   1.80707431e-02   1.78625607e-02   1.74488249e-02   1.70936415e-02   1.67647497e-02   1.69902118e-02   1.80213983e-02   1.80874813e-02   1.79775401e-02   1.77419888e-02   1.73655867e-02   1.69946514e-02   1.67457599e-02   1.67888465e-02   1.79685482e-02   1.80166408e-02   1.79076299e-02   1.76367663e-02   1.73012146e-02   1.69245401e-02   1.67484354e-02   1.79040515e-02   1.79341651e-02   1.78127464e-02   1.72344848e-02   1.69258863e-02   1.67262525e-02   1.69779425e-02   1.78791821e-02   1.79252111e-02   1.78201030e-02   1.75612069e-02   1.72326218e-02   1.68642602e-02   1.67018252e-02   1.71144094e-02   1.78363638e-02   1.78322758e-02   1.77008129e-02   1.71998085e-02   1.68446243e-02   1.66769157e-02   1.70376821e-02   1.77807791e-02   1.77788597e-02   1.76489830e-02   1.71482398e-02   1.68577153e-02   1.66450336e-02   1.68858657e-02   1.76830753e-02   1.77157721e-02   1.75959279e-02   1.71190154e-02   1.67778131e-02   1.66399492e-02   1.69516265e-02   1.76532631e-02   1.76398734e-02   1.74667190e-02   1.70814021e-02   1.67457193e-02   1.66122301e-02   1.68930366e-02   1.75827537e-02   1.75710512e-02   1.73986280e-02   1.70033410e-02   1.67219272e-02   1.65804554e-02   1.69722602e-02   1.75324743e-02   1.75091516e-02   1.73414851e-02   1.69872754e-02   1.67233135e-02   1.65453333e-02   1.68161771e-02   1.74472263e-02   1.74470805e-02   1.72861322e-02   1.69262664e-02   1.66620712e-02   1.65274475e-02   1.69697313e-02   1.73651512e-02   1.73202002e-02   1.70329490e-02   1.67588057e-02   1.65057633e-02   1.67151618e-02   1.71819387e-02   1.71692546e-02   1.67002228e-02   1.65119017e-02   1.67350034e-02   1.69551984e-02   1.67821692e-02   1.65712029e-02   1.67337483e-02   1.65956050e-02   1.56718495e-02   1.39429935e-02   1.35511150e-02   1.38039763e-02   1.38205017e-02   1.36872389e-02   1.34394049e-02   1.32213323e-02   1.30414340e-02   1.28551038e-02   1.25342156e-02   1.23428110e-02   1.21678260e-02   1.19891390e-02   1.18035074e-02   1.15881612e-02   1.13902096e-02   1.11731870e-02   1.09846002e-02   1.07893083e-02   1.05900387e-02   1.04465145e-02   1.02733888e-02   1.01613600e-02   1.01063814e-02   1.00129689e-02   9.93134491e-03   9.85882504e-03   9.79216377e-03   9.78801056e-03   
0.00000000e+00   0.00000000e+00   0.00000000e+00   0.00000000e+00   0.00000000e+00   0.00000000e+00   2.36225726e-02   2.10464315e-02   1.85121481e-02   1.81232287e-02   1.81420339e-02   1.93454421e-02   1.93333974e-02   1.91483318e-02   1.86019168e-02   1.82544379e-02   1.78920541e-02   1.79429038e-02   1.94614251e-02   1.95626843e-02   1.94373133e-02   1.92402506e-02   1.87761953e-02   1.83796065e-02   1.79122583e-02   1.78522506e-02   1.85877453e-02   1.94345522e-02   1.96224388e-02   1.94907422e-02   1.93004089e-02   1.87629270e-02   1.83414313e-02   1.78508849e-02   1.77425651e-02   1.83602045e-02   1.94267395e-02   1.95719641e-02   1.94019007e-02   1.91905392e-02   1.87131722e-02   1.82796913e-02   1.77871893e-02   1.78543210e-02   1.94138091e-02   1.95306776e-02   1.93556505e-02   1.91187695e-02   1.86999429e-02   1.82960581e-02   1.77251985e-02   1.78489183e-02   1.93095685e-02   1.95132479e-02   1.93775408e-02   1.91682383e-02   1.86097341e-02   1.82417831e-02   1.76837991e-02   1.76511558e-02   1.92564944e-02   1.94129552e-02   1.92434043e-02   1.90005772e-02   1.85196794e-02   1.81336600e-02   1.76775322e-02   1.76971437e-02   1.92340624e-02   1.93732424e-02   1.92001121e-02   1.89617504e-02   1.84875119e-02   1.81057777e-02   1.76567120e-02   1.76096716e-02   1.91815642e-02   1.92824537e-02   1.91473442e-02   1.88907065e-02   1.84199363e-02   1.80299757e-02   1.76088941e-02   1.76267430e-02   1.91994107e-02   1.92606413e-02   1.90681484e-02   1.87691709e-02   1.83381853e-02   1.79080756e-02   1.75880884e-02   1.76449488e-02   1.90969785e-02   1.91940134e-02   1.90553651e-02   1.87977598e-02   1.83528446e-02   1.79680353e-02   1.75699326e-02   1.77800064e-02   1.90871846e-02   1.91837575e-02   1.90132199e-02   1.87671646e-02   1.82930162e-02   1.78887580e-02   1.75499038e-02   1.77911024e-02   1.89970925e-02   1.91344894e-02   1.89577149e-02   1.86888676e-02   1.82917556e-02   1.79159599e-02   1.75259279e-02   1.75522208e-02   1.89760792e-02   1.90125792e-02   1.88634492e-02   1.85700572e-02   1.81514788e-02   1.77257601e-02   1.75855558e-02   1.81090296e-02   1.89830112e-02   1.89751732e-02   1.88183749e-02   1.84647284e-02   1.81150980e-02   1.76862149e-02   1.75636948e-02   1.80564686e-02   1.89283860e-02   1.89270686e-02   1.87738037e-02   1.84531663e-02   1.80738204e-02   1.76480073e-02   1.75435483e-02   1.88821110e-02   1.89108146e-02   1.87721232e-02   1.85007696e-02   1.80772881e-02   1.76692559e-02   1.74628161e-02   1.87740024e-02   1.87692396e-02   1.86165355e-02   1.79765442e-02   1.76432146e-02   1.74785900e-02   1.79267557e-02   1.87698984e-02   1.87740154e-02   1.86343234e-02   1.83293223e-02   1.79476693e-02   1.76108204e-02   1.74375205e-02   1.78238238e-02   1.87111990e-02   1.87031379e-02   1.85446719e-02   1.79313784e-02   1.75301972e-02   1.73852636e-02   1.77181158e-02   1.86160137e-02   1.86287735e-02   1.84746307e-02   1.78850208e-02   1.74942622e-02   1.74129418e-02   1.85767521e-02   1.85726584e-02   1.84265509e-02   1.78315595e-02   1.75141767e-02   1.73780576e-02   1.84888067e-02   1.84475282e-02   1.82295201e-02   1.77432660e-02   1.74248747e-02   1.73753204e-02   1.84217962e-02   1.83885814e-02   1.81717908e-02   1.77194007e-02   1.74129397e-02   1.73341052e-02   1.77495667e-02   1.83781469e-02   1.83540996e-02   1.81981377e-02   1.76518445e-02   1.73449303e-02   1.73520311e-02   1.82978237e-02   1.82858197e-02   1.81342046e-02   1.76285222e-02   1.73304713e-02   1.73015211e-02   1.82411998e-02   1.81956238e-02   1.79859720e-02   1.75838420e-02   1.72934211e-02   1.72800769e-02   1.81614889e-02   1.81104217e-02   1.78582977e-02   1.74837764e-02   1.72145038e-02   1.73895903e-02   1.80568530e-02   1.79837458e-02   1.74457392e-02   1.71908810e-02   1.73461236e-02   1.78382210e-02   1.77710700e-02   1.73319462e-02   1.72025315e-02   1.75848043e-02   1.75421983e-02   1.72926644e-02   1.73810304e-02   1.71749802e-02   1.52590609e-02   1.39176408e-02   1.42658576e-02   1.43619459e-02   1.42309418e-02   1.39449353e-02   1.36617191e-02   1.33457909e-02   1.31622023e-02   1.28298372e-02   1.26558516e-02   1.24932526e-02   1.23169717e-02   1.21272358e-02   1.19388399e-02   1.17312289e-02   1.15184462e-02   1.13004367e-02   1.10844635e-02   1.09090115e-02   1.06951231e-02   1.05593578e-02   1.03968693e-02   1.02777424e-02   1.01742465e-02   1.00894789e-02   1.00145466e-02   9.94761572e-03   9.88688725e-03   9.88306736e-03   
0.00000000e+00   0.00000000e+00   0.00000000e+00   0.00000000e+00   0.00000000e+00   0.00000000e+00   2.51181560e-02   2.24092006e-02   1.99889918e-02   1.99603004e-02   2.06602205e-02   2.05734701e-02   1.98442565e-02   1.96944254e-02   2.08449700e-02   2.07030494e-02   2.03210346e-02   1.98120939e-02   1.94900289e-02   1.95967283e-02   2.08200371e-02   2.07544074e-02   2.04532869e-02   1.97742085e-02   1.94024805e-02   1.93771048e-02   2.07292686e-02   2.06298775e-02   2.03134746e-02   1.97121251e-02   1.93405723e-02   1.95120201e-02   2.07583820e-02   2.07141938e-02   2.05071751e-02   1.97216746e-02   1.93363990e-02   1.93333431e-02   2.06924057e-02   2.06147336e-02   2.03959511e-02   1.96635794e-02   1.92855380e-02   1.92573683e-02   2.05565342e-02   2.05092307e-02   2.02847527e-02   1.95324940e-02   1.91665645e-02   1.91441992e-02   2.04633907e-02   2.03386930e-02   2.00108643e-02   1.94235408e-02   1.91431557e-02   1.93156152e-02   2.04611415e-02   2.03956709e-02   2.01725156e-02   1.94372185e-02   1.90786896e-02   1.90897533e-02   2.03977213e-02   2.02743671e-02   1.99630982e-02   1.93572163e-02   1.90222832e-02   1.91620555e-02   2.03121815e-02   2.02466643e-02   1.99417418e-02   1.93352307e-02   1.89949569e-02   1.91967324e-02   2.02038363e-02   2.01041232e-02   1.97858435e-02   1.91975505e-02   1.89649446e-02   1.90108468e-02   2.01019841e-02   1.99735387e-02   1.95846978e-02   1.91073548e-02   1.89688192e-02   1.99869605e-02   1.98189254e-02   1.90738137e-02   1.89651502e-02   1.98768072e-02   1.97048250e-02   1.90244084e-02   1.89005019e-02   1.94324236e-02   1.97282486e-02   1.95455730e-02   1.89985669e-02   1.88795735e-02   1.95075203e-02   1.92498724e-02   1.89361195e-02   1.90270332e-02   1.92220414e-02   1.89909741e-02   1.89258734e-02   1.60979141e-02   1.47632545e-02   1.52043084e-02   1.54058166e-02   1.55077915e-02   1.53810955e-02   1.50944333e-02   1.46877423e-02   1.42932028e-02   1.38418311e-02   1.36093301e-02   1.33835249e-02   1.32135830e-02   1.30456582e-02   1.28725613e-02   1.26786437e-02   1.24691214e-02   1.22166346e-02   1.19521181e-02   1.16642933e-02   1.13900980e-02   1.11589340e-02   1.09458388e-02   1.07788833e-02   1.06083225e-02   1.04950731e-02   1.03532560e-02   1.02660537e-02   1.01835861e-02   1.01145001e-02   1.00525022e-02   1.00014736e-02   9.95497424e-03   9.95173083e-03   
0.00000000e+00   0.00000000e+00   0.00000000e+00   0.00000000e+00   0.00000000e+00   0.00000000e+00   2.71258291e-02   2.44355781e-02   2.17392457e-02   2.16476255e-02   2.21544461e-02   2.19714627e-02   2.15221222e-02   2.18220452e-02   2.14766397e-02   2.15274240e-02   2.11614702e-02   2.02098818e-02   1.69613729e-02   1.56857422e-02   1.61445519e-02   1.63529092e-02   1.64773850e-02   1.64116699e-02   1.62271415e-02   1.58881228e-02   1.54668268e-02   1.49447358e-02   1.43861307e-02   1.41408841e-02   1.38679837e-02   1.36851469e-02   1.35085460e-02   1.33235856e-02   1.31059903e-02   1.28628909e-02   1.25825755e-02   1.22813326e-02   1.19300450e-02   1.16191139e-02   1.13258522e-02   1.10869928e-02   1.08829351e-02   1.07234209e-02   1.05779820e-02   1.04579915e-02   1.04107319e-02   1.02892279e-02   1.02120017e-02   1.01369784e-02   1.00807329e-02   1.00232558e-02   9.97192805e-03   9.92800985e-03   9.89027430e-03   9.88765866e-03   
0.00000000e+00   0.00000000e+00   0.00000000e+00   0.00000000e+00   0.00000000e+00   0.00000000e+00   2.86265528e-02   2.59070378e-02   2.33265385e-02   2.36731281e-02   2.35060598e-02   2.31233858e-02   2.32478024e-02   2.30199257e-02   2.25214049e-02   2.12458134e-02   1.80216591e-02   1.64665271e-02   1.69661646e-02   1.71614544e-02   1.72332331e-02   1.71898366e-02   1.70218030e-02   1.68272731e-02   1.64607730e-02   1.60316635e-02   1.54833420e-02   1.49033460e-02   1.43658528e-02   1.40561709e-02   1.38800533e-02   1.37010661e-02   1.35031789e-02   1.32732532e-02   1.29924772e-02   1.26296815e-02   1.21932721e-02   1.17918751e-02   1.14420723e-02   1.11915305e-02   1.09569367e-02   1.07776912e-02   1.06078340e-02   1.04778541e-02   1.03544755e-02   1.02542893e-02   1.01728768e-02   1.00802852e-02   1.00165911e-02   9.99390508e-03   9.94494559e-03   9.89336113e-03   9.84716480e-03   9.80413822e-03   9.77002961e-03   9.76743450e-03   
0.00000000e+00   0.00000000e+00   0.00000000e+00   0.00000000e+00   0.00000000e+00   0.00000000e+00   3.01168359e-02   2.72587439e-02   2.49012673e-02   2.51604958e-02   2.46808671e-02   2.41809361e-02   2.32311483e-02   1.91446367e-02   1.72308590e-02   1.76746149e-02   1.78195861e-02   1.78850394e-02   1.77962655e-02   1.75614880e-02   1.72856541e-02   1.71584669e-02   1.68171217e-02   1.64076216e-02   1.59353163e-02   1.53392477e-02   1.45416418e-02   1.42503803e-02   1.40580723e-02   1.38437601e-02   1.36336017e-02   1.33699582e-02   1.30631399e-02   1.26731991e-02   1.23178841e-02   1.22100231e-02   1.22157817e-02   1.22268581e-02   1.22268973e-02   
0.00000000e+00   0.00000000e+00   0.00000000e+00   0.00000000e+00   0.00000000e+00   0.00000000e+00   3.16043918e-02   2.86604091e-02   2.64215576e-02   2.66323870e-02   2.61725928e-02   2.55734789e-02   2.45307730e-02   1.97074840e-02   1.80074701e-02   1.83546906e-02   1.84400917e-02   1.84250044e-02   1.82590151e-02   1.79282761e-02   1.73606293e-02   1.69831886e-02   1.68918644e-02   1.68199551e-02   1.65511017e-02   1.62510178e-02   1.59100683e-02   1.54932678e-02   1.49377747e-02   1.44324499e-02   1.42152995e-02   1.40221979e-02   1.38326151e-02   1.36076244e-02   1.33233919e-02   1.29852306e-02   1.26647280e-02   1.25465166e-02   1.24575060e-02   1.24344885e-02   1.24463424e-02   1.24463561e-02   
0.00000000e+00   0.00000000e+00   0.00000000e+00   0.00000000e+00   0.00000000e+00   0.00000000e+00   3.32827747e-02   3.02182555e-02   2.79036292e-02   2.81079760e-02   2.78465341e-02   2.75200552e-02   2.68533570e-02   2.54511289e-02   2.04703787e-02   1.87055121e-02   1.90227190e-02   1.90645314e-02   1.89753952e-02   1.87905407e-02   1.84841793e-02   1.81507404e-02   1.76593721e-02   1.65027020e-02   1.62320141e-02   1.61336553e-02   1.60810467e-02   1.60182250e-02   1.59904360e-02   1.60019083e-02   1.60401432e-02   1.59832318e-02   1.58717232e-02   1.57289797e-02   1.55450874e-02   1.53080950e-02   1.49871138e-02   1.45557871e-02   1.42143568e-02   1.40262797e-02   1.38567548e-02   1.36956487e-02   1.34944365e-02   1.32663026e-02   1.29808214e-02   1.26330630e-02   1.21943773e-02   1.13523938e-02   1.10719580e-02   1.07947085e-02   1.05706553e-02   1.03540363e-02   1.01845028e-02   1.00349158e-02   9.90458429e-03   9.80730173e-03   9.70945169e-03   9.63476306e-03   9.55259983e-03   9.49999830e-03   9.43262068e-03   9.39188351e-03   9.34428555e-03   9.33884049e-03   9.31220701e-03   9.27212708e-03   9.24255570e-03   9.21425336e-03   9.19077471e-03   9.18884437e-03   
0.00000000e+00   0.00000000e+00   0.00000000e+00   0.00000000e+00   0.00000000e+00   0.00000000e+00   3.62613673e-02   3.28982146e-02   3.08000953e-02   3.09624869e-02   3.02062446e-02   2.92255972e-02   2.67058876e-02   2.18669236e-02   2.00114987e-02   2.02134629e-02   2.01611937e-02   2.00028505e-02   1.98152413e-02   1.96217167e-02   1.94107569e-02   1.91998323e-02   1.90040596e-02   1.88186530e-02   1.86524084e-02   1.85059316e-02   1.83808917e-02   1.82549819e-02   1.81384484e-02   1.79768579e-02   1.77021147e-02   1.75617234e-02   1.74446803e-02   1.74121016e-02   1.73728002e-02   1.73616587e-02   1.73369773e-02   1.73242254e-02   1.72700171e-02   1.72013699e-02   1.71838796e-02   1.71403451e-02   1.71102552e-02   1.70882329e-02   1.70533785e-02   1.69610993e-02   1.69147677e-02   1.68928100e-02   1.68536332e-02   1.67842461e-02   1.67261253e-02   1.66418499e-02   1.65491406e-02   1.64373997e-02   1.63160693e-02   1.62025055e-02   1.60766592e-02   1.59495036e-02   1.58119836e-02   1.56658069e-02   1.54954200e-02   1.53025113e-02   1.50629481e-02   1.47672822e-02   1.43883726e-02   1.40851418e-02   1.39020707e-02   1.37240030e-02   1.35419310e-02   1.33241773e-02   1.30555880e-02   1.27351851e-02   1.25433678e-02   1.24826998e-02   1.24672649e-02   1.24685337e-02   1.24904612e-02   1.25115247e-02   1.25949050e-02   1.26083850e-02   1.26250360e-02   1.26688434e-02   1.26918243e-02   1.27113970e-02   1.27283534e-02   1.27353666e-02   1.27349373e-02   1.27434936e-02   1.27669177e-02   1.28304857e-02   1.28826680e-02   1.28617740e-02   1.28083596e-02   1.27641589e-02   1.27241778e-02   1.26671802e-02   1.26163508e-02   1.25607728e-02   1.24888954e-02   1.23975263e-02   1.22911474e-02   1.21403310e-02   1.18881564e-02   1.14850260e-02   1.10130263e-02   1.05770689e-02   1.02572093e-02   1.00004128e-02   9.79378788e-03   9.62869211e-03   9.48430971e-03   9.37873225e-03   9.26713891e-03   9.19859563e-03   9.11508315e-03   9.05554254e-03   8.99301901e-03   8.94346251e-03   8.90368622e-03   8.85567072e-03   8.82699459e-03   8.79585679e-03   8.77617748e-03   8.74556738e-03   8.72332830e-03   8.70299730e-03   8.68582802e-03   8.68407316e-03   
0.00000000e+00   0.00000000e+00   0.00000000e+00   0.00000000e+00   0.00000000e+00   0.00000000e+00   3.91504537e-02   3.53958798e-02   3.35477777e-02   3.37376907e-02   3.27437362e-02   3.14590439e-02   2.32283022e-02   2.13207649e-02   2.13368922e-02   2.11828074e-02   2.10080545e-02   2.07887925e-02   2.05716189e-02   2.03476251e-02   2.01469109e-02   1.99678922e-02   1.97967364e-02   1.96519423e-02   1.95320841e-02   1.94371258e-02   1.93484000e-02   1.92339963e-02   1.90753612e-02   1.86340145e-02   1.59943627e-02   1.42824700e-02   1.37249614e-02   1.40585474e-02   
0.00000000e+00   0.00000000e+00   0.00000000e+00   0.00000000e+00   0.00000000e+00   4.19805206e-02   3.76942500e-02   3.62349390e-02   3.64160855e-02   3.60912555e-02   3.52940552e-02   3.38003394e-02   2.47685108e-02   2.25058147e-02   2.24551442e-02   2.22274294e-02   2.19848993e-02   2.17198614e-02   2.14420681e-02   2.12116470e-02   2.09708832e-02   2.07710015e-02   2.06198577e-02   2.04700724e-02   2.03486109e-02   2.02371798e-02   2.01292565e-02   1.99941270e-02   1.98989001e-02   1.94017325e-02   1.71377062e-02   1.39212694e-02   1.27062998e-02   1.28612136e-02   1.30146388e-02   1.30145555e-02   1.30144676e-02   1.30143801e-02   1.30143801e-02   
0.00000000e+00   0.00000000e+00   0.00000000e+00   0.00000000e+00   0.00000000e+00   4.15282397e-02   3.57194852e-02   3.55593492e-02   3.50713332e-02   3.38737809e-02   3.20001780e-02   2.97728447e-02   3.08037248e-02   2.56871503e-02   2.37156838e-02   2.35658744e-02   2.32357950e-02   2.29358580e-02   2.26208486e-02   2.23253718e-02   2.20415329e-02   2.17928375e-02   2.15762079e-02   2.13863090e-02   2.12265029e-02   2.10835795e-02   2.09778874e-02   2.08469371e-02   2.06533182e-02   2.02271492e-02   1.81727430e-02   1.36806588e-02   1.19740383e-02   1.20015829e-02   1.22252928e-02   1.22252654e-02   1.22324241e-02   1.22323536e-02   
0.00000000e+00   0.00000000e+00   0.00000000e+00   0.00000000e+00   0.00000000e+00   0.00000000e+00   4.35267350e-02   3.73678729e-02   3.70361231e-02   3.61270717e-02   3.37702296e-02   2.95449005e-02   3.05559256e-02   2.63412120e-02   2.49025827e-02   2.46085138e-02   2.42050404e-02   2.38218067e-02   2.34646782e-02   2.31214203e-02   2.28085578e-02   2.25385317e-02   2.22976868e-02   2.21014917e-02   2.19394831e-02   2.17844940e-02   2.16469817e-02   2.14947154e-02   2.13516263e-02   2.08655727e-02   1.86652414e-02   1.33019027e-02   1.13681463e-02   1.15100271e-02   1.15757167e-02   1.15773779e-02   1.15773585e-02   1.15773409e-02   1.15777625e-02   1.15754864e-02   1.15754650e-02   1.15743722e-02   1.15785589e-02   1.15785391e-02   1.15772359e-02   1.15772357e-02   
0.00000000e+00   0.00000000e+00   0.00000000e+00   0.00000000e+00   0.00000000e+00   0.00000000e+00   4.62040216e-02   3.96668594e-02   3.94889477e-02   3.72745735e-02   3.42824139e-02   3.00199700e-02   3.04851827e-02   2.68121680e-02   2.59608384e-02   2.55013172e-02   2.50439616e-02   2.46004797e-02   2.41792177e-02   2.38045265e-02   2.34818516e-02   2.31953939e-02   2.29468312e-02   2.27516308e-02   2.25836580e-02   2.24201539e-02   2.22569326e-02   2.20228180e-02   2.15087872e-02   1.94392521e-02   1.62052927e-02   1.27844413e-02   1.09814231e-02   1.10745978e-02   1.09391863e-02   1.08743152e-02   1.08735777e-02   1.08735778e-02   
0.00000000e+00   0.00000000e+00   0.00000000e+00   0.00000000e+00   0.00000000e+00   0.00000000e+00   4.88187352e-02   4.19753169e-02   4.15238680e-02   4.05305578e-02   3.81713318e-02   3.32552406e-02   3.11190771e-02   3.09855367e-02   2.72481105e-02   2.69557740e-02   2.63982571e-02   2.58842095e-02   2.53940245e-02   2.49539887e-02   2.45495844e-02   2.41966630e-02   2.39012742e-02   2.36477112e-02   2.34275284e-02   2.32305565e-02   2.30670185e-02   2.28907644e-02   2.26932997e-02   2.21691117e-02   1.99721276e-02   1.66783702e-02   1.26984520e-02   1.07438793e-02   1.01621226e-02   1.03179120e-02   1.02637320e-02   1.02653522e-02   1.02653517e-02   
0.00000000e+00   0.00000000e+00   0.00000000e+00   0.00000000e+00   0.00000000e+00   0.00000000e+00   5.13726722e-02   4.44276181e-02   4.38664456e-02   4.08377666e-02   3.64697831e-02   3.25300127e-02   3.15657380e-02   2.83094343e-02   2.79196530e-02   2.73263561e-02   2.67678039e-02   2.62384623e-02   2.57275103e-02   2.52876104e-02   2.48996421e-02   2.45796344e-02   2.43022744e-02   2.40683943e-02   2.38580944e-02   2.36798835e-02   2.34707028e-02   2.32472701e-02   2.25725115e-02   2.02837860e-02   1.68716804e-02   1.59526363e-02   1.59526361e-02   
0.00000000e+00   0.00000000e+00   0.00000000e+00   0.00000000e+00   0.00000000e+00   0.00000000e+00   5.35598729e-02   4.64818711e-02   4.58303416e-02   4.28824054e-02   3.81277059e-02   3.36171863e-02   3.23213033e-02   2.94308215e-02   2.88671027e-02   2.81828810e-02   2.75116339e-02   2.69232951e-02   2.64026028e-02   2.59352230e-02   2.55319549e-02   2.51907056e-02   2.48991454e-02   2.46437245e-02   2.44424050e-02   2.42392590e-02   2.40193270e-02   2.38276080e-02   2.29693730e-02   2.03427414e-02   2.03427414e-02   
0.00000000e+00   0.00000000e+00   0.00000000e+00   0.00000000e+00   0.00000000e+00   0.00000000e+00   5.66328243e-02   4.88299350e-02   4.81341584e-02   4.48572322e-02   3.88027264e-02   3.46984124e-02   3.31263777e-02   3.04279218e-02   2.97416373e-02   2.89870417e-02   2.83040264e-02   2.76815290e-02   2.70846113e-02   2.65862921e-02   2.61618664e-02   2.57988929e-02   2.54911850e-02   2.52294890e-02   2.50039236e-02   2.47616662e-02   2.45192616e-02   2.43349635e-02   2.32417128e-02   2.27886459e-02   2.27886459e-02   
0.00000000e+00   0.00000000e+00   0.00000000e+00   0.00000000e+00   0.00000000e+00   0.00000000e+00   5.84944170e-02   5.02567497e-02   4.94000061e-02   4.60536573e-02   4.04392910e-02   3.55487262e-02   3.41070543e-02   3.14438841e-02   3.06739843e-02   2.98787584e-02   2.91287757e-02   2.84583657e-02   2.78171404e-02   2.72873697e-02   2.68074648e-02   2.63959400e-02   2.60528652e-02   2.57685088e-02   2.55096443e-02   2.54118355e-02   2.54118352e-02   
0.00000000e+00   0.00000000e+00   0.00000000e+00   0.00000000e+00   0.00000000e+00   0.00000000e+00   6.11423824e-02   5.26061254e-02   5.18039007e-02   4.77883579e-02   4.05347668e-02   3.68267838e-02   3.50568083e-02   3.24534094e-02   3.16318783e-02   3.07090435e-02   2.99138363e-02   2.91720635e-02   2.85002709e-02   2.78919175e-02   2.73903740e-02   2.72576573e-02   2.72576555e-02   
0.00000000e+00   0.00000000e+00   0.00000000e+00   0.00000000e+00   0.00000000e+00   0.00000000e+00   0.00000000e+00   6.61798562e-02   5.66976184e-02   5.61102789e-02   5.11621749e-02   4.25489976e-02   3.92943031e-02   3.68201742e-02   3.42081795e-02   3.31769949e-02   3.21278893e-02   3.11898191e-02   3.03128317e-02   2.95021152e-02   2.89018891e-02   2.89018891e-02   
0.00000000e+00   0.00000000e+00   0.00000000e+00   0.00000000e+00   0.00000000e+00   0.00000000e+00   0.00000000e+00   0.00000000e+00   7.16764959e-02   6.06828939e-02   5.95946102e-02   5.34103554e-02   4.42485378e-02   4.10883280e-02   3.94717956e-02   3.60598124e-02   3.49189366e-02   3.37221692e-02   3.25670295e-02   3.15914553e-02   3.15613841e-02   3.15113344e-02   
0.00000000e+00   0.00000000e+00   0.00000000e+00   0.00000000e+00   0.00000000e+00   0.00000000e+00   0.00000000e+00   0.00000000e+00   7.68691047e-02   6.46553188e-02   6.33408814e-02   5.70940334e-02   4.80071675e-02   4.40943805e-02   4.19347082e-02   3.82532217e-02   3.68205256e-02   3.53988939e-02   3.46859739e-02   3.46618256e-02   
0.00000000e+00   0.00000000e+00   0.00000000e+00   0.00000000e+00   0.00000000e+00   0.00000000e+00   0.00000000e+00   0.00000000e+00   0.00000000e+00   8.22360332e-02   6.87134237e-02   6.70708917e-02   5.94263622e-02   5.02426406e-02   4.60333093e-02   4.39308879e-02   4.01134198e-02   3.81805315e-02   3.73684756e-02   2.92775028e-02   
0.00000000e+00   0.00000000e+00   0.00000000e+00   0.00000000e+00   0.00000000e+00   0.00000000e+00   0.00000000e+00   0.00000000e+00   8.66276268e-02   7.12638944e-02   6.95862947e-02   6.15068284e-02   5.32147683e-02   4.87500406e-02   4.61287962e-02   4.31000145e-02   4.00137752e-02   2.44658695e-02   
0.00000000e+00   0.00000000e+00   0.00000000e+00   0.00000000e+00   0.00000000e+00   0.00000000e+00   0.00000000e+00   0.00000000e+00   9.16278149e-02   7.54262331e-02   7.32079650e-02   6.42491274e-02   5.59146835e-02   5.11318811e-02   4.84771504e-02   4.47841226e-02   4.22580015e-02   2.55968782e-02   
0.00000000e+00   0.00000000e+00   0.00000000e+00   0.00000000e+00   0.00000000e+00   0.00000000e+00   0.00000000e+00   0.00000000e+00   9.67974368e-02   7.89401093e-02   7.73174951e-02   6.70592115e-02   5.83052025e-02   5.36389948e-02   5.02656859e-02   4.64564018e-02   4.61393063e-02   2.79139604e-02   
0.00000000e+00   0.00000000e+00   0.00000000e+00   0.00000000e+00   0.00000000e+00   0.00000000e+00   0.00000000e+00   0.00000000e+00   0.00000000e+00   1.01994425e-01   8.20404866e-02   7.96630145e-02   6.86827945e-02   6.00232783e-02   5.51574569e-02   5.21782214e-02   4.96213408e-02   2.64382040e-02   
0.00000000e+00   0.00000000e+00   0.00000000e+00   0.00000000e+00   0.00000000e+00   0.00000000e+00   0.00000000e+00   0.00000000e+00   1.06534298e-01   8.49142293e-02   8.23351713e-02   6.97730977e-02   6.23588741e-02   5.68707423e-02   5.35157817e-02   5.20429933e-02   2.82130188e-02   
0.00000000e+00   0.00000000e+00   0.00000000e+00   0.00000000e+00   0.00000000e+00   0.00000000e+00   0.00000000e+00   0.00000000e+00   1.10908720e-01   8.76960751e-02   8.47702169e-02   7.19649503e-02   6.39262105e-02   5.86211845e-02   5.46033561e-02   5.40674290e-02   3.47749617e-02   
0.00000000e+00   0.00000000e+00   0.00000000e+00   0.00000000e+00   0.00000000e+00   0.00000000e+00   0.00000000e+00   0.00000000e+00   1.15453932e-01   9.06277808e-02   8.68148629e-02   7.45235665e-02   6.60385024e-02   6.12423027e-02   5.65021185e-02   5.62395324e-02   2.95277930e-02   
0.00000000e+00   0.00000000e+00   0.00000000e+00   0.00000000e+00   0.00000000e+00   0.00000000e+00   0.00000000e+00   0.00000000e+00   1.20233008e-01   1.00010055e-01   9.12647504e-02   8.72084372e-02   7.49659067e-02   6.73951805e-02   6.18524145e-02   5.83759059e-02   4.79389664e-02   
0.00000000e+00   0.00000000e+00   0.00000000e+00   0.00000000e+00   0.00000000e+00   0.00000000e+00   0.00000000e+00   0.00000000e+00   1.24436030e-01   1.01947688e-01   9.42429137e-02   9.00203430e-02   7.78249230e-02   6.99434786e-02   6.40763506e-02   6.05274837e-02   3.84634511e-02   
0.00000000e+00   0.00000000e+00   0.00000000e+00   0.00000000e+00   0.00000000e+00   0.00000000e+00   0.00000000e+00   0.00000000e+00   1.29011438e-01   1.05070347e-01   9.59424480e-02   9.12472728e-02   7.90776928e-02   7.12793370e-02   6.53050971e-02   6.25393717e-02   4.46563224e-02   
0.00000000e+00   0.00000000e+00   0.00000000e+00   0.00000000e+00   0.00000000e+00   0.00000000e+00   0.00000000e+00   0.00000000e+00   1.32679366e-01   1.08417765e-01   9.85854250e-02   9.40583480e-02   8.23884903e-02   7.41080763e-02   6.79772663e-02   6.44872828e-02   4.85681552e-02   
0.00000000e+00   0.00000000e+00   0.00000000e+00   0.00000000e+00   0.00000000e+00   0.00000000e+00   0.00000000e+00   0.00000000e+00   1.37254817e-01   1.12170881e-01   1.00600175e-01   9.59019825e-02   8.40662694e-02   7.56032216e-02   6.82732151e-02   6.66822070e-02   5.08720337e-02   
0.00000000e+00   0.00000000e+00   0.00000000e+00   0.00000000e+00   0.00000000e+00   0.00000000e+00   0.00000000e+00   0.00000000e+00   1.40640629e-01   1.14658147e-01   1.01219988e-01   9.58850650e-02   8.41751089e-02   7.60168067e-02   6.83759800e-02   6.82253269e-02   4.57658897e-02   
0.00000000e+00   0.00000000e+00   0.00000000e+00   0.00000000e+00   0.00000000e+00   0.00000000e+00   0.00000000e+00   0.00000000e+00   1.44851405e-01   1.17053814e-01   1.04250609e-01   9.84874987e-02   8.73889904e-02   7.84787185e-02   7.06601417e-02   7.03928737e-02   6.09138254e-02   
0.00000000e+00   0.00000000e+00   0.00000000e+00   0.00000000e+00   0.00000000e+00   0.00000000e+00   0.00000000e+00   1.49416571e-01   1.20906181e-01   1.06413544e-01   1.00883992e-01   8.88304771e-02   7.96563498e-02   7.24339227e-02   5.88567139e-02   
0.00000000e+00   0.00000000e+00   0.00000000e+00   0.00000000e+00   0.00000000e+00   0.00000000e+00   0.00000000e+00   0.00000000e+00   1.52971294e-01   1.22356235e-01   1.07415360e-01   1.01682674e-01   8.93899653e-02   8.15183368e-02   7.37737205e-02   5.38150641e-02   
0.00000000e+00   0.00000000e+00   0.00000000e+00   0.00000000e+00   0.00000000e+00   0.00000000e+00   0.00000000e+00   0.00000000e+00   1.56895853e-01   1.24465472e-01   1.09210436e-01   1.03026491e-01   9.09695556e-02   8.24077888e-02   7.58599431e-02   5.90416441e-02   
0.00000000e+00   0.00000000e+00   0.00000000e+00   0.00000000e+00   0.00000000e+00   0.00000000e+00   0.00000000e+00   1.59821270e-01   1.26509225e-01   1.09222779e-01   1.03206202e-01   9.20813101e-02   8.29502281e-02   7.72631904e-02   5.75831865e-02   
0.00000000e+00   0.00000000e+00   0.00000000e+00   0.00000000e+00   0.00000000e+00   0.00000000e+00   0.00000000e+00   1.64007733e-01   1.29213228e-01   1.12765530e-01   1.06601428e-01   9.47263834e-02   8.50741919e-02   7.91612045e-02   5.55954815e-02   
0.00000000e+00   0.00000000e+00   0.00000000e+00   0.00000000e+00   0.00000000e+00   0.00000000e+00   0.00000000e+00   1.67432000e-01   1.31275467e-01   1.13200621e-01   1.06540880e-01   9.51441826e-02   8.57235578e-02   8.08876167e-02   4.60034246e-02   
0.00000000e+00   0.00000000e+00   0.00000000e+00   0.00000000e+00   0.00000000e+00   0.00000000e+00   0.00000000e+00   1.71603266e-01   1.33210226e-01   1.14813293e-01   1.08416403e-01   9.69437356e-02   8.72405194e-02   8.24188426e-02   5.39520380e-02   
0.00000000e+00   0.00000000e+00   0.00000000e+00   0.00000000e+00   0.00000000e+00   0.00000000e+00   0.00000000e+00   1.74395491e-01   1.34290751e-01   1.15466022e-01   1.09064802e-01   9.78743558e-02   8.77293844e-02   8.41220816e-02   4.85843975e-02   
0.00000000e+00   0.00000000e+00   0.00000000e+00   0.00000000e+00   0.00000000e+00   0.00000000e+00   0.00000000e+00   1.78255193e-01   1.35622061e-01   1.16770060e-01   1.09760176e-01   9.86188091e-02   8.84683573e-02   8.52495029e-02   4.98445316e-02   
0.00000000e+00   0.00000000e+00   0.00000000e+00   0.00000000e+00   0.00000000e+00   0.00000000e+00   0.00000000e+00   1.81480880e-01   1.37629743e-01   1.18231679e-01   1.10957749e-01   1.01169171e-01   8.97753389e-02   8.66284066e-02   6.36179302e-02   
0.00000000e+00   0.00000000e+00   0.00000000e+00   0.00000000e+00   0.00000000e+00   0.00000000e+00   0.00000000e+00   1.84660823e-01   1.39683441e-01   1.18859596e-01   1.11636293e-01   1.01760910e-01   8.96943276e-02   8.84968480e-02   5.42569274e-02   
0.00000000e+00   0.00000000e+00   0.00000000e+00   0.00000000e+00   0.00000000e+00   0.00000000e+00   0.00000000e+00   1.88542415e-01   1.42287479e-01   1.20535821e-01   1.13410307e-01   1.02533037e-01   9.00004777e-02   8.97187874e-02   5.86854302e-02   
0.00000000e+00   0.00000000e+00   0.00000000e+00   0.00000000e+00   0.00000000e+00   0.00000000e+00   0.00000000e+00   1.91158937e-01   1.43002425e-01   1.21413333e-01   1.14405782e-01   1.04293164e-01   9.13134787e-02   8.15408479e-02   
0.00000000e+00   0.00000000e+00   0.00000000e+00   0.00000000e+00   0.00000000e+00   0.00000000e+00   0.00000000e+00   1.94639971e-01   1.44554879e-01   1.21269180e-01   1.14717541e-01   1.04004414e-01   9.27744397e-02   7.75213900e-02   
0.00000000e+00   0.00000000e+00   0.00000000e+00   0.00000000e+00   0.00000000e+00   0.00000000e+00   0.00000000e+00   1.98830139e-01   1.46266995e-01   1.22354183e-01   1.14861777e-01   1.04775821e-01   9.40235183e-02   6.68057541e-02   
0.00000000e+00   0.00000000e+00   0.00000000e+00   0.00000000e+00   0.00000000e+00   0.00000000e+00   0.00000000e+00   2.00953029e-01   1.46726520e-01   1.22822969e-01   1.15669695e-01   1.05929321e-01   9.56725590e-02   8.46007853e-02   
0.00000000e+00   0.00000000e+00   0.00000000e+00   0.00000000e+00   0.00000000e+00   0.00000000e+00   0.00000000e+00   2.04375735e-01   1.47256285e-01   1.23533185e-01   1.15526240e-01   1.04856790e-01   9.67484397e-02   1.03600766e-01   
0.00000000e+00   0.00000000e+00   0.00000000e+00   0.00000000e+00   0.00000000e+00   0.00000000e+00   0.00000000e+00   2.11991477e-01   1.49911597e-01   1.23934915e-01   1.16583094e-01   1.05150165e-01   1.00146066e-01   6.76398916e-02   
0.00000000e+00   0.00000000e+00   0.00000000e+00   0.00000000e+00   0.00000000e+00   0.00000000e+00   2.19227015e-01   1.51721930e-01   1.25654223e-01   1.17423227e-01   1.03201644e-01   6.96454521e-02   
0.00000000e+00   0.00000000e+00   0.00000000e+00   0.00000000e+00   0.00000000e+00   0.00000000e+00   0.00000000e+00   2.26360517e-01   1.53529133e-01   1.25775548e-01   1.17157911e-01   1.06166248e-01   5.92761091e-02   
0.00000000e+00   0.00000000e+00   0.00000000e+00   0.00000000e+00   0.00000000e+00   0.00000000e+00   2.32598692e-01   1.49530784e-01   1.25397296e-01   1.15084368e-01   1.09286631e-01   6.40755027e-02   
0.00000000e+00   0.00000000e+00   0.00000000e+00   0.00000000e+00   0.00000000e+00   0.00000000e+00   2.37641416e-01   1.46887393e-01   1.23651897e-01   1.12021290e-01   7.57444411e-02   
0.00000000e+00   0.00000000e+00   0.00000000e+00   0.00000000e+00   0.00000000e+00   0.00000000e+00   2.43870356e-01   1.46331534e-01   1.22305323e-01   1.14661739e-01   1.07112002e-01   
0.00000000e+00   0.00000000e+00   0.00000000e+00   0.00000000e+00   0.00000000e+00   0.00000000e+00   2.54327533e-01   1.42239567e-01   1.23895740e-01   1.19429244e-01   1.04228034e-01   
0.00000000e+00   0.00000000e+00   0.00000000e+00   0.00000000e+00   0.00000000e+00   0.00000000e+00   2.65466274e-01   1.47178365e-01   1.22641564e-01   1.08850915e-01   
0.00000000e+00   0.00000000e+00   0.00000000e+00   0.00000000e+00   0.00000000e+00   0.00000000e+00   2.75199117e-01   1.52232676e-01   1.25884863e-01   1.25271242e-01   1.04019964e-01   
0.00000000e+00   0.00000000e+00   0.00000000e+00   0.00000000e+00   0.00000000e+00   0.00000000e+00   2.86576255e-01   1.55864409e-01   1.30272686e-01   1.28622801e-01   1.03750773e-01   
0.00000000e+00   0.00000000e+00   0.00000000e+00   0.00000000e+00   0.00000000e+00   0.00000000e+00   2.96769469e-01   1.61937850e-01   1.36939450e-01   1.33680774e-01   1.05091192e-01   
0.00000000e+00   0.00000000e+00   0.00000000e+00   0.00000000e+00   0.00000000e+00   0.00000000e+00   3.06990941e-01   1.73731110e-01   1.42998803e-01   1.37911860e-01   1.08341590e-01   
0.00000000e+00   0.00000000e+00   0.00000000e+00   0.00000000e+00   0.00000000e+00   0.00000000e+00   3.16881177e-01   1.81593853e-01   1.49308105e-01   1.42278198e-01   1.10177484e-01   
0.00000000e+00   0.00000000e+00   0.00000000e+00   0.00000000e+00   0.00000000e+00   0.00000000e+00   3.28396810e-01   1.87853290e-01   1.55196105e-01   1.46873143e-01   1.12334686e-01   
0.00000000e+00   0.00000000e+00   0.00000000e+00   0.00000000e+00   0.00000000e+00   0.00000000e+00   3.48979163e-01   2.02931637e-01   1.67612942e-01   1.56354996e-01   1.12889221e-01   
0.00000000e+00   0.00000000e+00   0.00000000e+00   0.00000000e+00   0.00000000e+00   0.00000000e+00   3.70402644e-01   2.19677667e-01   1.80772615e-01   1.66276131e-01   1.14370921e-01   
0.00000000e+00   0.00000000e+00   0.00000000e+00   0.00000000e+00   0.00000000e+00   0.00000000e+00   3.89417383e-01   2.39855654e-01   1.93230902e-01   1.75500304e-01   1.18716180e-01   
0.00000000e+00   0.00000000e+00   0.00000000e+00   0.00000000e+00   0.00000000e+00   4.08960322e-01   2.53088146e-01   2.04440220e-01   1.84392150e-01   1.19732261e-01   
0.00000000e+00   0.00000000e+00   0.00000000e+00   0.00000000e+00   0.00000000e+00   0.00000000e+00   4.27897192e-01   2.60522217e-01   2.14032401e-01   1.93318615e-01   1.20505922e-01   
0.00000000e+00   0.00000000e+00   0.00000000e+00   0.00000000e+00   0.00000000e+00   0.00000000e+00   4.46799590e-01   2.66393140e-01   2.23631608e-01   2.01976271e-01   1.21387867e-01   
0.00000000e+00   0.00000000e+00   0.00000000e+00   0.00000000e+00   0.00000000e+00   4.65370716e-01   2.76478945e-01   2.33772117e-01   2.10630048e-01   1.22382779e-01   
0.00000000e+00   0.00000000e+00   0.00000000e+00   0.00000000e+00   0.00000000e+00   0.00000000e+00   4.77964031e-01   2.81063551e-01   2.40599853e-01   2.18375996e-01   2.16612406e-01   1.25210491e-01   
0.00000000e+00   0.00000000e+00   0.00000000e+00   0.00000000e+00   0.00000000e+00   0.00000000e+00   4.30929860e-01   4.91432955e-01   2.96579393e-01   2.51019131e-01   2.27593019e-01   2.23918571e-01   1.25148249e-01   
0.00000000e+00   0.00000000e+00   0.00000000e+00   0.00000000e+00   0.00000000e+00   0.00000000e+00   4.51158992e-01   5.10645142e-01   3.10939982e-01   2.62529627e-01   2.37332034e-01   2.31574541e-01   1.26523656e-01   
0.00000000e+00   0.00000000e+00   0.00000000e+00   0.00000000e+00   0.00000000e+00   0.00000000e+00   5.12770894e-01   5.49456315e-01   3.49121996e-01   2.86881029e-01   2.60616056e-01   2.49567140e-01   1.34641448e-01   
0.00000000e+00   0.00000000e+00   0.00000000e+00   0.00000000e+00   0.00000000e+00   0.00000000e+00   5.67539930e-01   5.76289238e-01   3.94893271e-01   3.09169950e-01   2.81578148e-01   2.65065885e-01   1.40887215e-01   
0.00000000e+00   0.00000000e+00   0.00000000e+00   0.00000000e+00   0.00000000e+00   0.00000000e+00   0.00000000e+00   6.08187464e-01   5.30374505e-01   3.78038008e-01   3.23170176e-01   2.95371896e-01   2.80095680e-01   1.47719270e-01   
0.00000000e+00   0.00000000e+00   0.00000000e+00   0.00000000e+00   0.00000000e+00   0.00000000e+00   4.92024992e-01   6.51451339e-01   4.37105635e-01   3.48316179e-01   3.17638810e-01   2.94046094e-01   1.46331189e-01   
0.00000000e+00   0.00000000e+00   0.00000000e+00   0.00000000e+00   0.00000000e+00   0.00000000e+00   5.63387769e-01   6.82771690e-01   4.64526551e-01   3.66393249e-01   3.35350267e-01   3.08955994e-01   3.07612483e-01   1.61396206e-01   
0.00000000e+00   0.00000000e+00   0.00000000e+00   0.00000000e+00   0.00000000e+00   0.00000000e+00   5.86740215e-01   7.12204064e-01   4.94033149e-01   3.83785477e-01   3.50995287e-01   3.25946554e-01   3.20971682e-01   1.66299516e-01   
0.00000000e+00   0.00000000e+00   0.00000000e+00   0.00000000e+00   0.00000000e+00   0.00000000e+00   6.41402894e-01   7.41883975e-01   5.24293380e-01   4.03301581e-01   3.68319084e-01   3.45479693e-01   3.33446557e-01   1.69994134e-01   
0.00000000e+00   0.00000000e+00   0.00000000e+00   0.00000000e+00   0.00000000e+00   0.00000000e+00   6.72012460e-01   7.68513768e-01   5.45596487e-01   4.17795194e-01   3.82816337e-01   3.58771459e-01   3.44520516e-01   1.79152898e-01   
0.00000000e+00   0.00000000e+00   0.00000000e+00   0.00000000e+00   0.00000000e+00   0.00000000e+00   6.76252660e-01   7.96646405e-01   5.65359952e-01   4.33802855e-01   4.01687941e-01   3.75461821e-01   3.63756306e-01   3.56388180e-01   1.90295935e-01   
0.00000000e+00   0.00000000e+00   0.00000000e+00   0.00000000e+00   0.00000000e+00   0.00000000e+00   6.91408588e-01   8.22402329e-01   5.92526651e-01   4.48066196e-01   4.14791751e-01   3.89317570e-01   3.77133005e-01   3.66910406e-01   2.00812143e-01   
0.00000000e+00   0.00000000e+00   0.00000000e+00   0.00000000e+00   0.00000000e+00   0.00000000e+00   6.86254227e-01   8.49343605e-01   6.17793612e-01   4.65026168e-01   4.32275079e-01   4.10142487e-01   3.92776321e-01   3.84755292e-01   3.83859828e-01   3.82989073e-01   3.82097190e-01   3.81227815e-01   3.80339203e-01   3.78587216e-01   2.12002002e-01   
0.00000000e+00   0.00000000e+00   0.00000000e+00   0.00000000e+00   0.00000000e+00   0.00000000e+00   6.94122620e-01   8.72824249e-01   6.30485667e-01   4.77001282e-01   4.42290520e-01   4.26285435e-01   4.11840691e-01   4.10885159e-01   4.09952306e-01   4.09000005e-01   4.07133568e-01   4.06189114e-01   4.05269740e-01   4.02472590e-01   4.01559859e-01   4.00624510e-01   3.99713574e-01   3.98779801e-01   3.97871732e-01   3.96940392e-01   3.96039700e-01   3.95109303e-01   3.94208456e-01   3.93283194e-01   3.92384370e-01   3.91462095e-01   3.90567287e-01   3.88755093e-01   2.21307380e-01   
0.00000000e+00   0.00000000e+00   0.00000000e+00   0.00000000e+00   0.00000000e+00   0.00000000e+00   7.09287584e-01   9.64688562e-01   8.47070274e-01   6.81375394e-01   5.35612029e-01   5.00882167e-01   4.83202012e-01   4.82039718e-01   4.80909641e-01   4.75217475e-01   4.72980173e-01   4.71843294e-01   4.70740723e-01   4.69608170e-01   4.68507040e-01   4.67379616e-01   4.66286207e-01   4.65161387e-01   4.64071790e-01   4.62951946e-01   4.61868404e-01   4.60753811e-01   4.59670803e-01   4.58558619e-01   4.57482033e-01   4.56375248e-01   4.55301255e-01   4.54199212e-01   4.52050124e-01   4.50954022e-01   4.49895143e-01   4.48802431e-01   4.47745956e-01   4.46655769e-01   4.45607759e-01   4.44521459e-01   4.43474877e-01   4.42392626e-01   4.41348301e-01   4.40268925e-01   4.39230831e-01   4.38153756e-01   4.37119041e-01   4.36050426e-01   4.35018179e-01   4.33954163e-01   4.32928023e-01   4.31866668e-01   4.29807903e-01   4.28753379e-01   4.27741291e-01   4.25672331e-01   3.44613405e-01   
0.00000000e+00   0.00000000e+00   0.00000000e+00   0.00000000e+00   0.00000000e+00   0.00000000e+00   1.08942892e+00   8.26127729e-01   6.49343613e-01   6.09774594e-01   5.91143274e-01   5.80825502e-01   5.79366114e-01   5.77942760e-01   5.76490298e-01   5.75077677e-01   5.73637380e-01   5.72235633e-01   5.70803022e-01   5.69412808e-01   5.67994452e-01   5.66608567e-01   5.65194409e-01   5.62436001e-01   5.61028881e-01   5.59674972e-01   5.58275692e-01   5.56928034e-01   5.55538391e-01   5.54195942e-01   5.52815113e-01   5.51481855e-01   5.50106499e-01   5.48779400e-01   5.47413772e-01   5.46093965e-01   5.44736191e-01   5.43423351e-01   5.42068058e-01   5.40763804e-01   5.39415015e-01   5.36797002e-01   5.35457563e-01   5.34174857e-01   5.32841889e-01   5.31558426e-01   5.30229248e-01   5.28957831e-01   5.27639005e-01   5.26370103e-01   5.25051014e-01   5.23793337e-01   5.22485339e-01   5.21225315e-01   5.19919012e-01   5.18668213e-01   5.17365822e-01   5.16123396e-01   5.14825274e-01   5.13587847e-01   5.12736297e-01   5.11021325e-01   5.10089415e-01   5.09176489e-01   5.08188595e-01   5.07073259e-01   5.05797673e-01   5.04583633e-01   5.03312532e-01   5.02101527e-01   5.00833963e-01   4.99627673e-01   4.98367731e-01   4.97165668e-01   4.95911208e-01   4.94717209e-01   4.93470241e-01   4.92280464e-01   4.91037291e-01   4.88650370e-01   4.87415007e-01   4.86245705e-01   4.85014223e-01   4.83845712e-01   4.82613964e-01   4.81447292e-01   4.80218753e-01   4.79056136e-01   4.76673746e-01   3.06791049e-01   
0.00000000e+00   0.00000000e+00   0.00000000e+00   0.00000000e+00   0.00000000e+00   0.00000000e+00   1.27098464e+00   1.15402702e+00   9.68935032e-01   8.37937906e-01   7.30568747e-01   7.28496573e-01   7.26488370e-01   7.24443083e-01   7.22466975e-01   7.20448307e-01   7.18500193e-01   7.16509461e-01   7.14587683e-01   7.12620331e-01   7.10716576e-01   7.08787935e-01   7.06895667e-01   7.04971957e-01   7.03116242e-01   7.01213491e-01   6.99373196e-01   6.97486043e-01   6.95670553e-01   6.93829628e-01   6.91967717e-01   6.90186070e-01   6.88332487e-01   6.86564346e-01   6.84727904e-01   6.82967935e-01   6.81150641e-01   6.79403745e-01   6.77599125e-01   6.75867942e-01   6.74072202e-01   6.72360025e-01   6.70575647e-01   6.68876607e-01   6.67106024e-01   6.65414188e-01   6.63658441e-01   6.60268009e-01   6.58522247e-01   6.56867450e-01   6.55129561e-01   6.53477958e-01   6.51749025e-01   6.50117268e-01   6.48396923e-01   6.46770986e-01   6.45062256e-01   6.43452389e-01   6.41747080e-01   6.40144190e-01   6.38452196e-01   6.36859802e-01   6.35175995e-01   6.33585077e-01   6.31906692e-01   6.28707413e-01   6.27044150e-01   6.25493247e-01   6.23829737e-01   6.22271919e-01   6.20621092e-01   6.19080192e-01   6.17436437e-01   6.15902694e-01   6.14266704e-01   6.12740100e-01   6.11115848e-01   6.09590285e-01   6.07969188e-01   6.06453360e-01   6.04842389e-01   6.03332511e-01   6.01728331e-01   6.00230660e-01   5.98634259e-01   5.95612227e-01   5.94027385e-01   5.92559880e-01   5.90973958e-01   5.89511789e-01   5.87939927e-01   5.86475074e-01   5.84902164e-01   5.83448907e-01   5.81881228e-01   5.80438947e-01   5.78871995e-01   5.77430369e-01   5.75876472e-01   5.74440737e-01   5.72894068e-01   5.71464947e-01   5.69923959e-01   5.67028195e-01   5.65498423e-01   5.64091580e-01   5.62544368e-01   5.61133969e-01   5.59600715e-01   5.58194632e-01   5.56670052e-01   5.55271168e-01   5.53753185e-01   5.52363218e-01   5.50850301e-01   5.47958571e-01   5.46580806e-01   
0.00000000e+00   0.00000000e+00   0.00000000e+00   0.00000000e+00   0.00000000e+00   0.00000000e+00   0.00000000e+00   1.42460113e+00   1.30161436e+00   1.22997786e+00   1.04637866e+00   9.18659868e-01   8.56603464e-01   8.22560087e-01   8.20171750e-01   8.17872934e-01   8.15502830e-01   8.13231002e-01   8.10892126e-01   8.08649046e-01   8.06347483e-01   8.04131721e-01   8.01840892e-01   7.99653645e-01   7.97393991e-01   7.95229496e-01   7.93000818e-01   7.90859162e-01   7.88640791e-01   7.84368004e-01   7.82182364e-01   7.80117737e-01   7.77941171e-01   7.75888126e-01   7.73726776e-01   7.71698493e-01   7.69550824e-01   7.67531956e-01   7.65398778e-01   7.63408952e-01   7.61299710e-01   7.59307204e-01   7.57211324e-01   7.55253425e-01   7.53165499e-01   7.51221390e-01   7.49148492e-01   7.43178196e-01   7.41132125e-01   7.39240712e-01   7.37200494e-01   7.35310097e-01   7.33279611e-01   7.31408923e-01   7.29393639e-01   7.27535878e-01   7.25533132e-01   7.23684169e-01   7.21692477e-01   7.19862828e-01   7.17879990e-01   7.16057814e-01   7.14079308e-01   7.12269343e-01   7.10300789e-01   7.08493388e-01   7.06619055e-01   7.04666842e-01   7.02886342e-01   7.00935055e-01   6.99158865e-01   6.97205416e-01   6.95451668e-01   6.93509139e-01   6.91762406e-01   6.89831490e-01   6.88082573e-01   6.86165345e-01   6.84417804e-01   6.82498079e-01   6.80765644e-01   6.78862749e-01   6.77128500e-01   6.75237139e-01   6.73516743e-01   6.71626999e-01   6.68132700e-01   6.66260327e-01   6.64575593e-01   6.62699798e-01   6.61015200e-01   6.59136856e-01   6.57460324e-01   6.55589481e-01   6.53915728e-01   6.52059910e-01   6.50392871e-01   6.48545882e-01   6.46890441e-01   6.45050445e-01   6.43400492e-01   6.41574664e-01   6.39930586e-01   6.38112755e-01   6.34766871e-01   6.32943422e-01   6.31319086e-01   6.29497791e-01   6.27881937e-01   6.26068848e-01   6.24462882e-01   6.22655316e-01   6.21063978e-01   6.19265173e-01   6.17678088e-01   6.15895454e-01   6.14308959e-01   6.12538459e-01   6.10965147e-01   6.07598598e-01   5.36481120e-01   
0.00000000e+00   0.00000000e+00   0.00000000e+00   0.00000000e+00   0.00000000e+00   0.00000000e+00   1.56535887e+00   1.43888805e+00   1.40672288e+00   1.21361785e+00   1.07945526e+00   9.90023908e-01   9.62438721e-01   9.49014271e-01   9.35936547e-01   9.23044325e-01   9.10508848e-01   9.07788094e-01   9.05220381e-01   9.02524825e-01   8.99973464e-01   8.97300495e-01   8.94803482e-01   8.92168621e-01   8.89683502e-01   8.87068851e-01   8.84632638e-01   8.82050540e-01   8.79619500e-01   8.77056227e-01   8.74672691e-01   8.72139383e-01   8.67327306e-01   8.64819757e-01   8.62511510e-01   8.60002927e-01   8.57715830e-01   8.55235119e-01   8.52957946e-01   8.50497945e-01   8.48236248e-01   8.45786674e-01   8.43555999e-01   8.41123079e-01   8.38901341e-01   8.36492956e-01   8.34285632e-01   8.31884594e-01   8.29706746e-01   8.27322463e-01   8.25112574e-01   8.20569817e-01   8.18216212e-01   8.16096173e-01   8.13725969e-01   8.11624343e-01   8.09273103e-01   8.07169303e-01   8.04842617e-01   8.02754972e-01   8.00430962e-01   7.98367371e-01   7.96061340e-01   7.93996630e-01   7.91700823e-01   7.89661018e-01   7.87372725e-01   7.85341433e-01   7.83064591e-01   7.78896592e-01   7.76639510e-01   7.74651607e-01   7.72391419e-01   7.70402154e-01   7.68152757e-01   7.66190845e-01   7.63948575e-01   7.61989445e-01   7.59763566e-01   7.57817141e-01   7.55599767e-01   7.53659149e-01   7.51446615e-01   7.49506707e-01   7.47306155e-01   7.45388621e-01   7.43196671e-01   7.41289008e-01   7.39115557e-01   7.35196660e-01   7.33041247e-01   7.31179599e-01   7.29011695e-01   7.27157799e-01   7.24989149e-01   7.23134636e-01   7.20976399e-01   7.19135360e-01   7.16986161e-01   7.15151358e-01   7.13019315e-01   7.11198270e-01   7.09079726e-01   7.07270500e-01   7.05162319e-01   7.03363510e-01   7.01257458e-01   6.99471641e-01   6.97544766e-01   6.95426867e-01   6.93657080e-01   6.91537826e-01   6.89769718e-01   6.87655734e-01   6.85900364e-01   6.83804401e-01   6.82052912e-01   6.79973974e-01   6.78231470e-01   6.76154327e-01   6.74431188e-01   6.72349330e-01   6.70636012e-01   6.68545184e-01   6.66800439e-01   6.64741317e-01   6.60942703e-01   6.59222369e-01   
0.00000000e+00   0.00000000e+00   0.00000000e+00   0.00000000e+00   0.00000000e+00   0.00000000e+00   0.00000000e+00   1.68709948e+00   1.56792673e+00   1.53165585e+00   1.53021661e+00   1.52364706e+00   1.52243682e+00   1.51886851e+00   1.51738917e+00   1.51218155e+00   1.32232212e+00   1.21081518e+00   1.14223923e+00   1.09376633e+00   1.06281376e+00   1.04783391e+00   1.03302229e+00   1.01860460e+00   1.00434096e+00   9.90469650e-01   9.76703512e-01   9.73877738e-01   9.70922281e-01   9.68212659e-01   9.65285217e-01   9.62582612e-01   9.59674587e-01   9.57034889e-01   9.54161593e-01   9.51524378e-01   9.48672834e-01   9.46093266e-01   9.43276597e-01   9.38023823e-01   9.35234832e-01   9.32746071e-01   9.29956543e-01   9.27475456e-01   9.24702757e-01   9.22264465e-01   9.19523912e-01   9.17076298e-01   9.14344461e-01   9.11947265e-01   9.09226549e-01   9.06847795e-01   9.04155369e-01   9.01784062e-01   8.99117553e-01   8.96764921e-01   8.94108664e-01   8.91720181e-01   8.86800753e-01   8.84179657e-01   8.81916129e-01   8.79276930e-01   8.77004053e-01   8.74373906e-01   8.72141167e-01   8.69515288e-01   8.67297142e-01   8.64691800e-01   8.62472788e-01   8.59884177e-01   8.57689800e-01   8.55105275e-01   8.52928115e-01   8.50363243e-01   8.48175851e-01   8.45616311e-01   8.41107610e-01   8.38564061e-01   8.36453470e-01   8.33884210e-01   8.31782060e-01   8.29239354e-01   8.27129919e-01   8.24602014e-01   8.22523302e-01   8.19996388e-01   8.17924333e-01   8.15409298e-01   8.13337311e-01   8.10826401e-01   8.08769819e-01   8.06273893e-01   8.04211201e-01   8.01737653e-01   7.99697285e-01   7.97230008e-01   7.95207906e-01   7.92989642e-01   7.90537901e-01   7.88571192e-01   7.86080189e-01   7.84128546e-01   7.81634855e-01   7.79655987e-01   7.77193485e-01   7.75239112e-01   7.72771441e-01   7.70830049e-01   7.68390673e-01   7.66448071e-01   7.64028423e-01   7.62109390e-01   7.59679313e-01   7.57781646e-01   7.55374792e-01   7.53457977e-01   7.51360755e-01   7.48902860e-01   7.47053525e-01   7.44604549e-01   7.42760137e-01   7.40298553e-01   7.38494405e-01   7.36044640e-01   7.34224891e-01   7.31815051e-01   7.30018277e-01   7.27599114e-01   7.25819589e-01   7.23402802e-01   7.21597988e-01   7.19181659e-01   7.17374965e-01   7.14986012e-01   7.13200872e-01   7.10794873e-01   7.07126523e-01   7.04574046e-01   
