3.0 0.002 0.0 rapid zams end all
3.7386934673366836 0.002 0.0 rapid zams end all
4.477386934673367 0.002 0.0 rapid zams end all
5.21608040201005 0.002 0.0 rapid zams end all
5.954773869346734 0.002 0.0 rapid zams end all
6.693467336683417 0.002 0.0 rapid zams end all
7.4321608040201 0.002 0.0 rapid zams end all
8.170854271356784 0.002 0.0 rapid zams end all
8.909547738693467 0.002 0.0 rapid zams end all
9.64824120603015 0.002 0.0 rapid zams end all
10.386934673366834 0.002 0.0 rapid zams end all
11.125628140703517 0.002 0.0 rapid zams end all
11.8643216080402 0.002 0.0 rapid zams end all
12.603015075376884 0.002 0.0 rapid zams end all
13.341708542713567 0.002 0.0 rapid zams end all
14.080402010050252 0.002 0.0 rapid zams end all
14.819095477386934 0.002 0.0 rapid zams end all
15.557788944723617 0.002 0.0 rapid zams end all
16.2964824120603 0.002 0.0 rapid zams end all
17.035175879396984 0.002 0.0 rapid zams end all
17.77386934673367 0.002 0.0 rapid zams end all
18.51256281407035 0.002 0.0 rapid zams end all
19.251256281407034 0.002 0.0 rapid zams end all
19.98994974874372 0.002 0.0 rapid zams end all
20.7286432160804 0.002 0.0 rapid zams end all
21.467336683417084 0.002 0.0 rapid zams end all
22.20603015075377 0.002 0.0 rapid zams end all
22.944723618090453 0.002 0.0 rapid zams end all
23.683417085427134 0.002 0.0 rapid zams end all
24.42211055276382 0.002 0.0 rapid zams end all
25.160804020100503 0.002 0.0 rapid zams end all
25.899497487437184 0.002 0.0 rapid zams end all
26.63819095477387 0.002 0.0 rapid zams end all
27.376884422110553 0.002 0.0 rapid zams end all
28.115577889447234 0.002 0.0 rapid zams end all
28.85427135678392 0.002 0.0 rapid zams end all
29.592964824120603 0.002 0.0 rapid zams end all
30.331658291457284 0.002 0.0 rapid zams end all
31.07035175879397 0.002 0.0 rapid zams end all
31.809045226130653 0.002 0.0 rapid zams end all
32.54773869346734 0.002 0.0 rapid zams end all
33.28643216080402 0.002 0.0 rapid zams end all
34.0251256281407 0.002 0.0 rapid zams end all
34.76381909547739 0.002 0.0 rapid zams end all
35.50251256281407 0.002 0.0 rapid zams end all
36.24120603015075 0.002 0.0 rapid zams end all
36.97989949748744 0.002 0.0 rapid zams end all
37.71859296482412 0.002 0.0 rapid zams end all
38.4572864321608 0.002 0.0 rapid zams end all
39.19597989949749 0.002 0.0 rapid zams end all
39.93467336683417 0.002 0.0 rapid zams end all
40.67336683417086 0.002 0.0 rapid zams end all
41.41206030150754 0.002 0.0 rapid zams end all
42.15075376884422 0.002 0.0 rapid zams end all
42.88944723618091 0.002 0.0 rapid zams end all
43.62814070351759 0.002 0.0 rapid zams end all
44.36683417085427 0.002 0.0 rapid zams end all
45.10552763819096 0.002 0.0 rapid zams end all
45.84422110552764 0.002 0.0 rapid zams end all
46.58291457286432 0.002 0.0 rapid zams end all
47.321608040201006 0.002 0.0 rapid zams end all
48.06030150753769 0.002 0.0 rapid zams end all
48.79899497487437 0.002 0.0 rapid zams end all
49.537688442211056 0.002 0.0 rapid zams end all
50.27638190954774 0.002 0.0 rapid zams end all
51.01507537688442 0.002 0.0 rapid zams end all
51.753768844221106 0.002 0.0 rapid zams end all
52.49246231155779 0.002 0.0 rapid zams end all
53.23115577889447 0.002 0.0 rapid zams end all
53.969849246231156 0.002 0.0 rapid zams end all
54.70854271356784 0.002 0.0 rapid zams end all
55.44723618090452 0.002 0.0 rapid zams end all
56.185929648241206 0.002 0.0 rapid zams end all
56.92462311557789 0.002 0.0 rapid zams end all
57.66331658291457 0.002 0.0 rapid zams end all
58.402010050251256 0.002 0.0 rapid zams end all
59.14070351758794 0.002 0.0 rapid zams end all
59.87939698492462 0.002 0.0 rapid zams end all
60.618090452261306 0.002 0.0 rapid zams end all
61.35678391959799 0.002 0.0 rapid zams end all
62.095477386934675 0.002 0.0 rapid zams end all
62.834170854271356 0.002 0.0 rapid zams end all
63.57286432160804 0.002 0.0 rapid zams end all
64.31155778894473 0.002 0.0 rapid zams end all
65.0502512562814 0.002 0.0 rapid zams end all
65.78894472361809 0.002 0.0 rapid zams end all
66.52763819095478 0.002 0.0 rapid zams end all
67.26633165829145 0.002 0.0 rapid zams end all
68.00502512562814 0.002 0.0 rapid zams end all
68.74371859296483 0.002 0.0 rapid zams end all
69.4824120603015 0.002 0.0 rapid zams end all
70.22110552763819 0.002 0.0 rapid zams end all
70.95979899497488 0.002 0.0 rapid zams end all
71.69849246231155 0.002 0.0 rapid zams end all
72.43718592964824 0.002 0.0 rapid zams end all
73.17587939698493 0.002 0.0 rapid zams end all
73.9145728643216 0.002 0.0 rapid zams end all
74.65326633165829 0.002 0.0 rapid zams end all
75.39195979899498 0.002 0.0 rapid zams end all
76.13065326633166 0.002 0.0 rapid zams end all
76.86934673366834 0.002 0.0 rapid zams end all
77.60804020100502 0.002 0.0 rapid zams end all
78.34673366834171 0.002 0.0 rapid zams end all
79.08542713567839 0.002 0.0 rapid zams end all
79.82412060301507 0.002 0.0 rapid zams end all
80.56281407035176 0.002 0.0 rapid zams end all
81.30150753768844 0.002 0.0 rapid zams end all
82.04020100502512 0.002 0.0 rapid zams end all
82.77889447236181 0.002 0.0 rapid zams end all
83.51758793969849 0.002 0.0 rapid zams end all
84.25628140703517 0.002 0.0 rapid zams end all
84.99497487437186 0.002 0.0 rapid zams end all
85.73366834170854 0.002 0.0 rapid zams end all
86.47236180904522 0.002 0.0 rapid zams end all
87.21105527638191 0.002 0.0 rapid zams end all
87.94974874371859 0.002 0.0 rapid zams end all
88.68844221105527 0.002 0.0 rapid zams end all
89.42713567839196 0.002 0.0 rapid zams end all
90.16582914572864 0.002 0.0 rapid zams end all
90.90452261306532 0.002 0.0 rapid zams end all
91.64321608040201 0.002 0.0 rapid zams end all
92.38190954773869 0.002 0.0 rapid zams end all
93.12060301507537 0.002 0.0 rapid zams end all
93.85929648241206 0.002 0.0 rapid zams end all
94.59798994974874 0.002 0.0 rapid zams end all
95.33668341708542 0.002 0.0 rapid zams end all
96.07537688442211 0.002 0.0 rapid zams end all
96.81407035175879 0.002 0.0 rapid zams end all
97.55276381909547 0.002 0.0 rapid zams end all
98.29145728643216 0.002 0.0 rapid zams end all
99.03015075376884 0.002 0.0 rapid zams end all
99.76884422110552 0.002 0.0 rapid zams end all
100.50753768844221 0.002 0.0 rapid zams end all
101.24623115577889 0.002 0.0 rapid zams end all
101.98492462311557 0.002 0.0 rapid zams end all
102.72361809045226 0.002 0.0 rapid zams end all
103.46231155778894 0.002 0.0 rapid zams end all
104.20100502512562 0.002 0.0 rapid zams end all
104.93969849246231 0.002 0.0 rapid zams end all
105.67839195979899 0.002 0.0 rapid zams end all
106.41708542713567 0.002 0.0 rapid zams end all
107.15577889447236 0.002 0.0 rapid zams end all
107.89447236180904 0.002 0.0 rapid zams end all
108.63316582914572 0.002 0.0 rapid zams end all
109.37185929648241 0.002 0.0 rapid zams end all
110.11055276381909 0.002 0.0 rapid zams end all
110.84924623115577 0.002 0.0 rapid zams end all
111.58793969849246 0.002 0.0 rapid zams end all
112.32663316582914 0.002 0.0 rapid zams end all
113.06532663316582 0.002 0.0 rapid zams end all
113.80402010050251 0.002 0.0 rapid zams end all
114.54271356783919 0.002 0.0 rapid zams end all
115.28140703517587 0.002 0.0 rapid zams end all
116.02010050251256 0.002 0.0 rapid zams end all
116.75879396984924 0.002 0.0 rapid zams end all
117.49748743718592 0.002 0.0 rapid zams end all
118.23618090452261 0.002 0.0 rapid zams end all
118.97487437185929 0.002 0.0 rapid zams end all
119.71356783919597 0.002 0.0 rapid zams end all
120.45226130653266 0.002 0.0 rapid zams end all
121.19095477386935 0.002 0.0 rapid zams end all
121.92964824120602 0.002 0.0 rapid zams end all
122.66834170854271 0.002 0.0 rapid zams end all
123.4070351758794 0.002 0.0 rapid zams end all
124.14572864321607 0.002 0.0 rapid zams end all
124.88442211055276 0.002 0.0 rapid zams end all
125.62311557788945 0.002 0.0 rapid zams end all
126.36180904522612 0.002 0.0 rapid zams end all
127.10050251256281 0.002 0.0 rapid zams end all
127.8391959798995 0.002 0.0 rapid zams end all
128.57788944723617 0.002 0.0 rapid zams end all
129.31658291457285 0.002 0.0 rapid zams end all
130.05527638190955 0.002 0.0 rapid zams end all
130.79396984924622 0.002 0.0 rapid zams end all
131.5326633165829 0.002 0.0 rapid zams end all
132.2713567839196 0.002 0.0 rapid zams end all
133.01005025125627 0.002 0.0 rapid zams end all
133.74874371859295 0.002 0.0 rapid zams end all
134.48743718592965 0.002 0.0 rapid zams end all
135.22613065326632 0.002 0.0 rapid zams end all
135.964824120603 0.002 0.0 rapid zams end all
136.7035175879397 0.002 0.0 rapid zams end all
137.44221105527637 0.002 0.0 rapid zams end all
138.18090452261305 0.002 0.0 rapid zams end all
138.91959798994975 0.002 0.0 rapid zams end all
139.65829145728642 0.002 0.0 rapid zams end all
140.3969849246231 0.002 0.0 rapid zams end all
141.1356783919598 0.002 0.0 rapid zams end all
141.87437185929647 0.002 0.0 rapid zams end all
142.61306532663315 0.002 0.0 rapid zams end all
143.35175879396985 0.002 0.0 rapid zams end all
144.09045226130652 0.002 0.0 rapid zams end all
144.8291457286432 0.002 0.0 rapid zams end all
145.5678391959799 0.002 0.0 rapid zams end all
146.30653266331657 0.002 0.0 rapid zams end all
147.04522613065328 0.002 0.0 rapid zams end all
147.78391959798995 0.002 0.0 rapid zams end all
148.52261306532662 0.002 0.0 rapid zams end all
149.26130653266333 0.002 0.0 rapid zams end all
150.0 0.002 0.0 rapid zams end all
